 26.1350698  18.6566510 0.0232404  15.7151098
 22.7590411  17.2703932 0.0232404  15.4557730
 20.2516148  14.7354111 0.0232404  15.0085644
 18.9740836  11.4663923 0.0232404  14.4788032
 19.0685228   7.9698849 0.0232404  13.9641924
 20.4812224   4.7662010 0.0232404  13.5344822
 36.9878584  11.4663923 0.0232404  14.4788032
 35.7103272  14.7354111 0.0232404  15.0085644
 33.2029009  17.2703932 0.0232404  15.4557730
 29.8268722  18.6566510 0.0232404  15.7151098
 26.0580703  22.3003005 0.3834569  16.4520668
 22.4017312  21.2369253 0.3834569  16.2282382
 19.2796666  19.2172135 0.3834569  15.8231303
 16.9505232  16.4342921 0.3834569  15.3045250
 15.5694857  13.1362014 0.3834569  14.7431463
 15.1991349   9.5967001 0.3834569  14.1973545
 15.8295299   6.0938456 0.3834569  13.7080110
 40.3924563  13.1362014 0.3834569  14.7431463
 39.0114188  16.4342921 0.3834569  15.3045250
 36.6822754  19.2172135 0.3834569  15.8231303
 33.5602108  21.2369253 0.3834569  16.2282382
 29.9038717  22.3003005 0.3834569  16.4520668
 25.9905446  25.9256817 1.0000000  17.2754699
 22.1429040  25.0562282 1.0000000  17.0690033
 18.6749492  23.3782440 1.0000000  16.6868404
 15.7814718  21.0031888 1.0000000  16.1800389
 13.5925589  18.0769235 1.0000000  15.6053267
 12.1782514  14.7637273 1.0000000  15.0133766
 11.5623727  11.2342716 1.0000000  14.4430463
 11.7367630   7.6583159 1.0000000  13.9207259
 12.6707905   4.2008291 1.0000000  13.4624567
 43.7836906  14.7637273 1.0000000  15.0133766
 42.3693831  18.0769235 1.0000000  15.6053267
 40.1804702  21.0031888 1.0000000  16.1800389
 37.2869928  23.3782440 1.0000000  16.6868404
 33.8190380  25.0562282 1.0000000  17.0690033
 29.9713974  25.9256817 1.0000000  17.2754699
 25.9221605  29.5420392 0.4121861  18.2023554
 21.9086141  28.7994167 0.4121861  18.0025136
 18.1932910  27.3545643 0.4121861  17.6280951
 14.9334593  25.2819000 0.4121861  17.1220227
 12.2387744  22.6796779 0.4121861  16.5337706
 10.1729998  19.6594162 0.4121861  15.9096665
  8.7635076  16.3374806 0.4121861  15.2872554
  8.0129263  12.8297579 0.4121861  14.6936786
  7.9090220   9.2490906 0.4121861  14.1466416
  8.4310861   5.7045556 0.4121861  13.6564795
  9.5526079   2.3015765 0.4121861  13.2283421
 47.1984344  16.3374806 0.4121861  15.2872554
 45.7889422  19.6594162 0.4121861  15.9096665
 43.7231676  22.6796779 0.4121861  16.5337706
 41.0284827  25.2819000 0.4121861  17.1220227
 37.7686510  27.3545643 0.4121861  17.6280951
 34.0533279  28.7994167 0.4121861  18.0025136
 30.0397815  29.5420392 0.4121861  18.2023554
  8.6362223  24.2621420 0.0268532  16.8855393
  6.6874551  21.1760869 0.0268532  16.2156585
  5.3079031  17.8498942 0.0268532  15.5628591
  4.4877195  14.3666419 0.0268532  14.9462571
  4.2106964  10.8056516 0.0268532  14.3776363
  4.4585320   7.2428111 0.0268532  13.8633375
  5.2127717   3.7513579 0.0268532  13.4059728
  6.4548188   0.4027001 0.0268532  13.0057854
 50.6540389  17.8498942 0.0268532  15.5628591
 49.2744869  21.1760869 0.0268532  16.2156585
 47.3257197  24.2621420 0.0268532  16.8855393
 44.8110640  27.0219003 0.0268532  17.5444750
 41.7559924  29.3684030 0.0268532  18.1551646
 38.2176807  31.2182830 0.0268532  18.6731096
 34.2920169  32.4983090 0.0268532  19.0521234
 30.1139359  33.1532556 0.0268532  19.2530068
