210.10700 80.09910 1.00000 0.00007
208.44813 79.65236 0.00000 0.00008
210.99355 79.58906 0.00000 0.00008
212.94476 79.89496 0.00014 0.00008
212.85680 80.35762 0.01147 0.00008
210.57630 80.62673 0.00000 0.00008
207.89871 80.48109 0.00000 0.00008
207.03075 80.04207 0.00000 0.00008
