 nan            CHIME       CHIME       FRB37888771          FRB              UTC           1240224487.6794     -       -            255.6993          21.5024         0.023875    0.008000
 nan            CHIME       CHIME       FRB54295013          FRB              UTC           1252313509.6493     -       -              4.0746            6.204         0.085684    0.014000
 nan            CHIME       CHIME       FRB56503596          FRB              UTC           1253741548.2871     -       -            210.8387          80.1169          0.77574    0.014000
 nan            CHIME       CHIME       FRB37338232          FRB              UTC           1239748722.7174     -       -            255.5092          86.7254           2.5774    0.015000
 nan            CHIME       CHIME       FRB41464641          FRB              UTC           1244487393.6081     -       -              65.784           42.668         0.066894    0.017000
 nan            CHIME       CHIME       FRB39718470          FRB              UTC           1243327678.6456     -       -            262.8564          49.3021        0.0059117    0.026000
 nan            CHIME       CHIME       FRB39069820          FRB              UTC           1242166012.301     -       -             87.7237          26.5631         0.029603    0.029000
 nan            CHIME       CHIME       FRB47583802          FRB              UTC           1249476591.9522     -       -             31.0324          65.5287           1.6265    0.033000
 nan            CHIME       CHIME       FRB51101285          FRB              UTC           1250769232.9317     -       -             33.1574          65.6594          0.41017    0.034000
 nan            CHIME       CHIME       FRB42295086          FRB              UTC           1245449478.4525     -       -            304.1526          73.5738           2.2494    0.037000
 nan            CHIME       CHIME       FRB36154193          FRB              UTC           1238933999.0559     -       -            263.4377          -2.1565         0.031353    0.039000
 nan            CHIME       CHIME       FRB39097648          FRB              UTC           1242205493.7489     -       -             181.712          89.3608            16.32    0.041000
 nan            CHIME       CHIME       FRB37655475          FRB              UTC           1240062721.8296     -       -            298.6829          26.3159         0.021455    0.042000
 nan            CHIME       CHIME       FRB41366878          FRB              UTC           1244352655.1485     -       -            222.2315             4.08          0.17889    0.044000
 nan            CHIME       CHIME       FRB41866365          FRB              UTC           1245118895.8267     -       -            181.6498          74.7556          0.14896    0.044000
 nan            CHIME       CHIME       FRB43263682          FRB              UTC           1246067906.9411     -       -            189.6457          74.7392           1.1951    0.046000
 nan            CHIME       CHIME       FRB41710598          FRB              UTC           1244893344.0638     -       -            321.0753          25.4205         0.088669    0.048000
 nan            CHIME       CHIME       FRB44805743          FRB              UTC           1247447494.8241     -       -            196.0777          74.2389         0.043457    0.049000
 nan            CHIME       CHIME       FRB40608623          FRB              UTC           1243736459.1454     -       -            168.5042          -5.4359          0.14309    0.049000
 nan            CHIME       CHIME       FRB41643446          FRB              UTC           1244772771.9219     -       -            177.3075           83.826         0.068709    0.050000
 nan            CHIME       CHIME       FRB52181976          FRB              UTC           1251548737.472     -       -              47.986           21.414         0.037541    0.050000
 nan            CHIME       CHIME       FRB55465664          FRB              UTC           1253146282.8329     -       -            243.5166          68.7811          0.10658    0.052000
 nan            CHIME       CHIME       FRB45387132          FRB              UTC           1247855436.4662     -       -             98.9818          64.2866          0.23799    0.059000
 nan            CHIME       CHIME       FRB54231573          FRB              UTC           1252284639.5075     -       -            243.8699          22.3068          0.76307    0.059000
 nan            CHIME       CHIME       FRB43456869          FRB              UTC           1246831777.7111     -       -            141.6338          63.1056         0.057857    0.061000
 nan            CHIME       CHIME       FRB41597828          FRB              UTC           1244699808.486     -       -            233.5283          34.3503         0.016189    0.061000
 nan            CHIME       CHIME       FRB52473268          FRB              UTC           1251710005.4055     -       -             88.9481          89.3887           8.6187    0.073000
 nan            CHIME       CHIME       FRB43918161          FRB              UTC           1247019614.2911     -       -             23.9538          73.4374          0.56216    0.074000
 nan            CHIME       CHIME       FRB40594289          FRB              UTC           1243725157.9588     -       -            120.8064          59.5356         0.041575    0.076000
 nan            CHIME       CHIME       FRB56603084          FRB              UTC           1253799139.2239     -       -              90.722           10.658           1.0626    0.083000
 nan            CHIME       CHIME       FRB52425525          FRB              UTC           1251685585.4392     -       -            259.7127          13.0573          0.19329    0.090000
 nan            CHIME       CHIME       FRB41683788          FRB              UTC           1244829910.7927     -       -             56.2024            1.162           1.0639    0.092000
 nan            CHIME       CHIME       FRB47831457          FRB              UTC           1249619726.3995     -       -             268.315          50.7985        0.0047797    0.095000
 nan            CHIME       CHIME       FRB41006263          FRB              UTC           1243894788.7909     -       -            109.1742          86.9651           1.3125    0.101000
 nan            CHIME       CHIME       FRB39911187          FRB              UTC           1243458826.0036     -       -             88.5766          28.4578          0.20183    0.101000
