H1L1	E269364	Swift	BAT	GRB170111A	Long	00:33:27.180000	1168130025.18	29.876	9.71117	20.691150	-32.543350	0.029237	nan
H1L1	E269496	Swift	BAT	GRB170112A	Short	02:01:59.110000	1168221737.11	0.05599993	0.01788858	15.232140	-17.232650	0.042124	nan
H1L1	E269667	Swift	BAT	GRB170113A	Long	10:04:04.480000	1168337062.48	20.296	4.332635	61.749150	-71.936120	0.022010	nan
H1L1	E272290	Swift	BAT	GRB170202A	Long	18:28:02.370000	1170095300.37	37.76	11.71811	152.525600	5.020531	0.016950	nan
H1L1	E272325	Swift	BAT	GRB170203A	Long	00:03:41.060000	1170115439.06	45.904	5.961554	332.859300	25.185460	0.036463	nan
H1L1	E273104	Swift	BAT	GRB170208A	Long	18:11:16.320000	1170612694.32	7.448	0.5432937	166.543700	-46.785930	0.023084	nan
H1L1	E273131	Swift	BAT	GRB170208B	Long	22:33:38.910000	1170628436.91	128.136	5.718968	127.145200	-9.027653	0.008403	nan
H1L1	E277236	Swift	BAT	GRB170311A	Long	08:08:42.950000	1173254940.95	9.0	2.828427	280.541000	-30.038080	0.033188	nan
H1L1	E278027	Swift	BAT	GRB170317A	Long	09:45:59.080000	1173779177.08	11.952	4.874961	93.087140	50.500130	0.016302	nan
H1L1	E278169	Swift	BAT	GRB170318A	Long	12:11:56.520000	1173874334.52	116.916	31.52705	305.662900	28.405620	0.020325	nan
H1L1	E278188	Swift	BAT	GRB170318B	Short	15:27:52.550000	1173886090.55	1.072	0.2218468	284.292300	6.316858	0.036969	nan
H1L1	E279918	Swift	BAT	GRB170330A	Long	22:29:51.340000	1174948209.34	144.468	2.18785	283.323300	-13.448320	0.024172	nan
H1L1	E279938	Swift	BAT	GRB170331A	Long	01:40:46.440000	1174959664.44	17.616	2.476901	323.777900	-24.405430	0.033650	nan
H1L1	E282506	Swift	BAT	GRB170419A	Long	13:26:40.200000	1176643618.2	7.776	1.751105	79.854020	-21.433960	0.028605	nan
H1L1	E283665	Swift	BAT	GRB170428A	Short	09:13:42.3	1177406040.3	0.1999999	0.07375638	330.051900	26.913510	0.020358	nan
H1L1	E291067	Swift	BAT	GRB170626A	Long	09:37:23.12	1182505061.12	12.948	0.3465948	165.407500	56.479020	0.008249	nan
H1L1	E291449	Swift	BAT	GRB170629A	Long	12:53:33.15	1182776031.15	34.428	12.76203	129.960100	-46.583390	0.022040	nan
H1L1	E292182 	Swift 	BAT 	GRB170705A 	Long 	02:45:47.08 	1183257965.08 	223.204 	15.55201 	191.708400 	18.297190 	0.010992 	nan
H1L1	E293392 	Swift 	BAT 	GRB170714A 	Long 	12:25:32.63 	1184070350.63 	459.216 	94.60989 	34.320780 	1.962078 	0.036353 	nan
H1L1	E294593 	Swift 	BAT 	GRB170724A 	Long 	00:48:44.58 	1184892542.58 	98.98 	20.75716 	150.060000 	-1.026412 	0.039524 	nan
H1L1	E295187 	Swift 	BAT 	GRB170728A 	Short 	06:53:28.78 	1185260026.78 	1.248 	0.2468684 	58.901950 	12.162310 	0.035567 	nan
H1L1V1	E296646 	Swift 	BAT 	GRB170807A 	Long 	21:56:09.11 	1186178187.11 	36.324 	7.972911 	143.433400 	-17.347810 	0.025354 	nan
H1L1V1	E298784 	Swift 	BAT 	GRB170822A 	Long 	09:11:51.05 	1187428329.05 	64.0 	16.0 	94.374800 	54.999170 	0.034569 	nan
H1L1V1	E299005 	Swift 	BAT 	GRB170823A 	Long 	22:16:48.320000 	1187561826.32 	69.408 	12.03175 	188.713700 	35.549760 	0.014272 	nan
