H1L1V1	E296646 	Swift 	BAT 	GRB170807A 	Long 	21:56:09.11 	1186178187.11 	36.324 	7.972911 	143.433400 	-17.347810 	0.025354 	nan
H1L1V1	E298784 	Swift 	BAT 	GRB170822A 	Long 	09:11:51.05 	1187428329.05 	64.0 	16.0 	94.374800 	54.999170 	0.034569 	nan
H1L1V1	E299005 	Swift 	BAT 	GRB170823A 	Long 	22:16:48.320000 	1187561826.32 	69.408 	12.03175 	188.713700 	35.549760 	0.014272 	nan
