# seg_number start stop duration
0 938025450 938027149 1699
1 938053623 938053780 157
2 938071870 938075756 3886
3 938082290 938085020 2730
4 938104250 938106575 2325
5 938128068 938128749 681
6 938132650 938137891 5241
7 938153030 938153080 50
8 938153703 938154023 320
9 938167268 938167381 113
10 938168409 938168693 284
11 938171847 938171912 65
12 938217910 938220754 2844
13 938249171 938255836 6665
14 938514236 938514813 577
15 938525619 938525660 41
16 938529953 938529980 27
17 938676600 938676620 20
18 938697610 938697630 20
19 938761402 938766754 5352
20 938767269 938767950 681
21 938768772 938776870 8098
22 938778469 938782687 4218
23 938783299 938785675 2376
24 938786280 938790296 4016
25 938791144 938792157 1013
26 938794494 938798262 3768
27 938799419 938802553 3134
28 938803220 938804289 1069
29 938804719 938805336 617
30 938805773 938806465 692
31 938808019 938809359 1340
32 938818640 938818787 147
33 938819391 938828915 9524
34 938833284 938835663 2379
35 938836119 938867016 30897
36 938902321 938903234 913
37 938906213 938918251 12038
38 938918284 938918305 21
39 938918334 938918339 5
40 938918359 938918454 95
41 938918503 938918817 314
42 938925027 938950181 25154
43 938951820 938954501 2681
44 938958244 938965409 7165
45 938966108 938969464 3356
46 938970470 938975722 5252
47 938976457 938978858 2401
48 938979376 938982740 3364
49 938983262 938986011 2749
50 939020344 939027240 6896
51 939039358 939042965 3607
52 939043695 939044358 663
53 939045949 939046937 988
54 939046965 939047990 1025
55 939049022 939050664 1642
56 939053295 939056836 3541
57 939087015 939087776 761
58 939105164 939108987 3823
59 939110618 939111241 623
60 939113248 939113801 553
61 939114873 939116089 1216
62 939119758 939120333 575
63 939121908 939122548 640
64 939126661 939127252 591
65 939131266 939131609 343
66 939134443 939134577 134
67 939137840 939138224 384
68 939143177 939143781 604
69 939226961 939227168 207
70 939228508 939229784 1276
71 939316730 939316780 50
72 939316876 939316922 46
73 939322965 939322990 25
74 939326891 939326909 18
75 939372788 939372927 139
76 939373810 939373830 20
77 939382526 939383968 1442
78 939385064 939386883 1819
79 939387315 939388411 1096
80 939389724 939390603 879
81 939394712 939395634 922
82 939546414 939546550 136
83 939713952 939714124 172
84 939917150 939917398 248
85 939982160 939983962 1802
86 939989823 939989938 115
87 940042960 940044920 1960
88 940050032 940072937 22905
89 940076257 940076295 38
90 940206668 940206996 328
91 940207029 940207427 398
92 940216660 940216696 36
93 940238870 940238920 50
94 940239600 940239620 20
95 940252300 940252970 670
96 940548110 940551879 3769
97 941124787 941124826 39
98 941124840 941124922 82
99 941190420 941191275 855
100 941208903 941209182 279
101 941229740 941230020 280
102 941230719 941230810 91
103 941233982 941234018 36
104 941234953 941235105 152
105 941241530 941242281 751
106 941274408 941274797 389
107 941275431 941275585 154
108 941289570 941289591 21
109 941348420 941349506 1086
110 941353503 941363906 10403
111 941370474 941372374 1900
112 941377942 941378584 642
113 941379861 941382006 2145
114 941719515 941719871 356
115 941729844 941729890 46
116 941731379 941731613 234
117 942366440 942366460 20
118 942390274 942409252 18978
119 942410068 942411305 1237
120 942413121 942413209 88
121 942414536 942415375 839
122 942418363 942418401 38
123 942419816 942420708 892
124 942422650 942422951 301
125 942423762 942423935 173
126 942425621 942431748 6127
127 942437933 942438850 917
128 942444154 942444302 148
129 942445973 942447126 1153
130 942447199 942447348 149
131 942455411 942455587 176
132 942458537 942458788 251
133 942460222 942460888 666
134 942462549 942463515 966
135 942464764 942464907 143
136 942466797 942466919 122
137 942486839 942487141 302
138 942488404 942489103 699
139 942489979 942490398 419
140 942491869 942492817 948
141 942494670 942494884 214
142 942496412 942496677 265
143 942502250 942502692 442
144 942527843 942528074 231
145 942529382 942529847 465
146 942534459 942534521 62
147 942535361 942537305 1944
148 942538961 942540258 1297
149 942541382 942542732 1350
150 942542754 942545451 2697
151 942547543 942550443 2900
152 942552515 942554138 1623
153 942555416 942556017 601
154 942556747 942557733 986
155 942558113 942558305 192
156 942559183 942560596 1413
157 942561315 942562720 1405
158 942563279 942563543 264
159 942564201 942565095 894
160 942567491 942570087 2596
161 942571867 942571958 91
162 942573086 942573562 476
163 942575541 942575625 84
164 942576087 942576979 892
165 942577871 942577951 80
166 942578894 942580057 1163
167 942583022 942583207 185
168 942585112 942585930 818
169 942624200 942627304 3104
170 942628023 942629656 1633
171 942630540 942631676 1136
172 942632382 942639971 7589
173 942641228 942645399 4171
174 942646318 942647654 1336
175 942648658 942651246 2588
176 942653842 942657529 3687
177 942658869 942660373 1504
178 942661474 942661503 29
179 942661561 942661773 212
180 942661813 942661844 31
181 942662087 942662149 62
182 942662421 942664308 1887
183 942664591 942665896 1305
184 942666779 942667444 665
185 942668904 942669385 481
186 942999006 943009438 10432
187 943011698 943018636 6938
188 943019680 943021022 1342
189 943021686 943023187 1501
190 943024174 943026923 2749
191 943072825 943098370 25545
192 943099882 943100800 918
193 943125214 943125239 25
194 943582328 943584620 2292
195 943607558 943608430 872
196 943610698 943618352 7654
197 943994908 943995937 1029
198 944226836 944227111 275
199 944228574 944229184 610
200 944230921 944231784 863
201 944245435 944245859 424
202 944247190 944247246 56
203 944247994 944248754 760
204 944628128 944629322 1194
205 944777928 944779524 1596
206 944821404 944821653 249
207 944834159 944836833 2674
208 944841770 944841800 30
209 944859520 944861199 1679
210 944868260 944868552 292
211 944876173 944877920 1747
212 944879080 944881478 2398
213 944882380 944886078 3698
214 944886520 944888600 2080
215 944888740 944899264 10524
216 945015038 945017525 2487
217 945020639 945022693 2054
218 945028974 945029067 93
219 945221007 945221767 760
220 945262970 945264867 1897
221 945273923 945282851 8928
222 945289466 945289511 45
223 945327690 945333288 5598
224 945354290 945357342 3052
225 945387630 945389390 1760
226 945413800 945414425 625
227 945414644 945426542 11898
228 945458520 945458949 429
229 945492534 945522707 30173
230 945523800 945530899 7099
231 945575480 945579105 3625
232 945582970 945585156 2186
233 945585390 945587558 2168
234 945588800 945593123 4323
235 945593340 945595096 1756
236 945595180 945598321 3141
237 945599500 945601565 2065
238 945601700 945607480 5780
239 945610105 945616862 6757
240 945617548 945620813 3265
241 945829191 945829802 611
242 945830330 945830753 423
243 946040951 946044885 3934
244 946101627 946109688 8061
245 946110348 946112015 1667
246 946112039 946117910 5871
247 946118545 946125775 7230
248 946134047 946134370 323
249 946151390 946153130 1740
250 946159560 946161140 1580
251 946161380 946163708 2328
252 946172630 946173968 1338
253 946175375 946177140 1765
254 946180908 946182330 1422
255 946187960 946192150 4190
256 946192170 946197724 5554
257 946286668 946286916 248
258 946299491 946299766 275
259 946335952 946336138 186
260 946341273 946349815 8542
261 946349830 946352650 2820
262 946353097 946364764 11667
263 946386370 946387105 735
264 946390950 946396560 5610
265 946396610 946398293 1683
266 946398490 946408316 9826
267 946411807 946412971 1164
268 946413068 946415246 2178
269 946423184 946431633 8449
270 946442890 946444794 1904
271 946469100 946472732 3632
272 946647752 946652014 4262
273 946659220 946661507 2287
274 946701634 946701731 97
275 946701799 946704270 2471
276 946715946 946716633 687
277 946717520 946730204 12684
278 946830704 946834933 4229
279 946907890 946914245 6355
280 946981130 946981170 40
281 946990984 946995528 4544
