# seg_number start stop duration
0 961545615 961545615 0
1 961573355 961576273 2918
2 961582252 961582316 64
3 961596192 961597857 1665
4 961610883 961614042 3159
5 961635194 961637570 2376
6 961641212 961642554 1342
7 961651627 961655628 4001
8 961657355 961657568 213
9 961676159 961681424 5265
10 961692742 961694870 2128
11 961698002 961699890 1888
12 961699991 961701428 1437
13 961705152 961710472 5320
14 961712768 961717703 4935
15 961720002 961724624 4622
16 961737304 961739652 2348
17 961759540 961760097 557
18 961762453 961765420 2967
19 961766284 961767799 1515
20 961768022 961768876 854
21 961769154 961770098 944
22 961770389 961770415 26
23 961770906 961776179 5273
24 961778359 961780385 2026
25 961782387 961787470 5083
26 961789812 961792766 2954
27 961794747 961796819 2072
28 961798388 961798654 266
29 961799750 961802476 2726
30 961842331 961843639 1308
31 961847053 961847816 763
32 961849593 961850166 573
33 961850382 961858982 8600
34 961910386 961910673 287
35 961917983 961918170 187
36 961921393 961929810 8417
37 961935823 961936789 966
38 961937008 961937061 53
39 961937440 961937504 64
40 961938761 961945755 6994
41 961946082 961947076 994
42 961947474 961948725 1251
43 961949661 961954162 4501
44 961956761 961958086 1325
45 962079329 962080540 1211
46 962090551 962093623 3072
47 962116363 962118349 1986
48 962118455 962119811 1356
49 962119860 962120402 542
50 962122721 962123276 555
51 962223522 962225680 2158
52 962226136 962231314 5178
53 962238052 962239286 1234
54 962241246 962251224 9978
55 962254439 962254788 349
56 962264100 962266918 2818
57 962280386 962281237 851
58 962282777 962283347 570
59 962284251 962291609 7358
60 962302965 962304184 1219
61 962307237 962308779 1542
62 962315328 962316423 1095
63 962363357 962366582 3225
64 962381238 962381822 584
65 962382051 962383163 1112
66 962394362 962394402 40
67 962394409 962394516 107
68 962405586 962412915 7329
69 962431774 962434104 2330
70 962434612 962452423 17811
71 962453629 962457950 4321
72 962459631 962461402 1771
73 962462801 962464655 1854
74 962484346 962484633 287
75 962485488 962489135 3647
76 962491069 962497640 6571
77 962512296 962515135 2839
78 962535871 962537826 1955
79 962540254 962546096 5842
80 962546654 962547072 418
81 962549932 962550125 193
82 962550147 962551805 1658
83 962553883 962554098 215
84 962555344 962558740 3396
85 962567217 962567955 738
86 962600905 962604338 3433
87 962622828 962623626 798
88 962624032 962624809 777
89 962625893 962626757 864
90 962630392 962633084 2692
91 962643548 962644366 818
92 962644412 962644941 529
93 962652636 962653899 1263
94 962661855 962662912 1057
95 962709479 962710538 1059
96 962717356 962718383 1027
97 962726542 962728666 2124
98 962731219 962731781 562
99 962731889 962732872 983
100 962738348 962738663 315
101 962738949 962739101 152
102 962753010 962757602 4592
103 962761222 962767599 6377
104 962770596 962773417 2821
105 962786967 962788610 1643
106 962799791 962801251 1460
107 962801807 962809067 7260
108 962809551 962810326 775
109 962812083 962813606 1523
110 962818085 962820152 2067
111 962828135 962832236 4101
112 962832238 962832261 23
113 962835260 962835422 162
114 962842668 962846871 4203
115 962847189 962856735 9546
116 962889009 962892690 3681
117 962894577 962897630 3053
118 962910335 962914183 3848
119 962926576 962927066 490
120 962933779 962944457 10678
121 962948181 962949992 1811
122 962967225 962979854 12629
123 963012920 963014184 1264
124 963048888 963049561 673
125 963052199 963068872 16673
126 963201875 963206222 4347
127 963216428 963219293 2865
128 963226362 963228893 2531
129 963229660 963232467 2807
130 963232526 963233965 1439
131 963235490 963236714 1224
132 963236989 963238420 1431
133 963241364 963242220 856
134 963250419 963255634 5215
135 963255933 963257487 1554
136 963258546 963261349 2803
137 963262335 963263014 679
138 963268624 963268674 50
139 963271539 963276272 4733
140 963276540 963276579 39
141 963276583 963276599 16
142 963302266 963305861 3595
143 963306236 963307497 1261
144 963313128 963315148 2020
145 963316143 963324299 8156
146 963335750 963341015 5265
147 963341497 963343238 1741
148 963349073 963349360 287
149 963349431 963352164 2733
150 963361869 963363463 1594
151 963366144 963366187 43
152 963366189 963366395 206
153 963367645 963367825 180
154 963373709 963376790 3081
155 963384653 963385329 676
156 963404057 963408931 4874
157 963422610 963425450 2840
158 963459612 963460263 651
159 963478836 963481519 2683
160 963483671 963485876 2205
161 963489526 963493355 3829
162 963493918 963494260 342
163 963514650 963516338 1688
164 963527880 963556981 29101
165 963575140 963579544 4404
166 963581480 963587499 6019
167 963587556 963592463 4907
168 963598570 963608140 9570
169 963609508 963610516 1008
170 963616522 963617625 1103
171 963619449 963620656 1207
172 963629371 963630008 637
173 963654513 963672438 17925
174 963694542 963697851 3309
175 963700818 963713203 12385
176 963713224 963717865 4641
177 963719161 963735972 16811
178 963744179 963744929 750
179 963745201 963745886 685
180 963747533 963748748 1215
181 963749100 963751088 1988
182 963752286 963758567 6281
183 963760848 963761604 756
184 963762820 963765865 3045
185 963767000 963779422 12422
186 963785011 963800396 15385
187 963800705 963810232 9527
188 963817266 963819355 2089
189 963819652 963821055 1403
190 963824360 963825058 698
191 963832855 963833494 639
192 963837010 963837936 926
193 963838754 963842775 4021
194 963842984 963845852 2868
195 963846393 963852915 6522
196 963870642 963871291 649
197 963916856 963929062 12206
198 963929640 963933675 4035
199 963934271 963934995 724
200 963935945 963939072 3127
201 963939266 963940366 1100
202 963940692 963941310 618
203 963942098 963942662 564
204 963942835 963945075 2240
205 963945423 963951590 6167
206 963973083 963978154 5071
207 964003164 964004862 1698
208 964006106 964007301 1195
209 964009342 964010954 1612
210 964013036 964015112 2076
211 964016722 964017351 629
212 964025864 964025964 100
213 964028906 964029079 173
214 964043808 964044693 885
215 964050221 964050742 521
216 964051926 964051964 38
217 964051966 964051982 16
218 964083179 964083952 773
219 964090503 964091107 604
220 964093214 964095645 2431
221 964114398 964115834 1436
222 964145199 964147407 2208
223 964149542 964150417 875
224 964152620 964153943 1323
225 964178646 964181379 2733
226 964182401 964183609 1208
227 964187524 964189252 1728
228 964191634 964192888 1254
229 964196848 964197037 189
230 964197309 964201433 4124
231 964203527 964203653 126
232 964204258 964205805 1547
233 964208704 964210060 1356
234 964220898 964225684 4786
235 964259462 964260354 892
236 964262656 964264348 1692
237 964264857 964266901 2044
238 964266988 964268944 1956
239 964268949 964280001 11052
240 964318001 964318068 67
241 964318695 964318957 262
242 964321814 964323231 1417
243 964323974 964325017 1043
244 964329100 964329505 405
245 964330255 964330525 270
246 964343136 964343695 559
247 964343911 964368809 24898
248 964373425 964383937 10512
249 964387835 964401260 13425
250 964404418 964405223 805
251 964408195 964409043 848
252 964411156 964411953 797
253 964437085 964440480 3395
254 964440710 964442950 2240
255 964443143 964443357 214
256 964444243 964445470 1227
257 964446100 964448857 2757
258 964448904 964452644 3740
259 964473856 964474320 464
260 964476445 964477933 1488
261 964480282 964486806 6524
262 964488866 964488875 9
263 964489510 964496867 7357
264 964497784 964497920 136
265 964505764 964509216 3452
266 964510400 964512146 1746
267 964517260 964518411 1151
268 964530930 964533955 3025
269 964563800 964565656 1856
270 964574413 964574965 552
271 964583390 964583415 25
272 964605398 964607360 1962
273 964613426 964614103 677
274 964620175 964620669 494
275 964630131 964631348 1217
276 964631496 964631540 44
277 964631543 964631564 21
278 964631602 964632226 624
279 964639269 964640820 1551
280 964654966 964655197 231
281 964667591 964668417 826
282 964671063 964671969 906
283 964673539 964673555 16
284 964680791 964681456 665
285 964706505 964706997 492
286 964710277 964710968 691
287 964726642 964728589 1947
288 964742167 964743463 1296
289 964758879 964761131 2252
290 964782319 964786145 3826
291 964790111 964790835 724
292 964791639 964792305 666
293 964797304 964801347 4043
294 964801455 964801552 97
295 964811150 964813152 2002
296 964815560 964818291 2731
297 964819469 964819549 80
298 964822207 964822247 40
299 964831988 964832034 46
300 964836134 964836622 488
301 964868324 964871791 3467
302 964875378 964883173 7795
303 964919851 964920020 169
304 964947786 964948894 1108
305 964955084 964955822 738
306 964955873 964956660 787
307 964959033 964962349 3316
308 964969304 964977516 8212
309 964979291 964990745 11454
310 965046108 965047486 1378
311 965050139 965052384 2245
312 965053495 965055696 2201
313 965060890 965064004 3114
314 965070811 965073213 2402
315 965098147 965102609 4462
316 965129038 965131010 1972
317 965131520 965133977 2457
318 965136373 965137207 834
319 965142251 965143104 853
320 965148305 965148800 495
321 965547885 965549247 1362
322 965561048 965565590 4542
323 965586926 965589275 2349
324 965601982 965602329 347
325 965637574 965640858 3284
326 965649649 965649847 198
327 965658742 965663327 4585
328 965691494 965694220 2726
329 965699646 965700254 608
330 965706291 965706348 57
331 965706430 965709508 3078
332 965709689 965709856 167
333 965715516 965717145 1629
334 965718389 965721980 3591
335 965725188 965726127 939
336 965728840 965729773 933
337 965732197 965734251 2054
338 965740744 965744856 4112
339 965746562 965746646 84
340 965753873 965754531 658
341 965761051 965762101 1050
342 965781288 965781808 520
343 965811674 965812412 738
344 965822968 965825769 2801
345 965827026 965829391 2365
346 965868363 965869674 1311
347 965903867 965906153 2286
348 965916619 965918489 1870
349 965918711 965920980 2269
350 965923163 965923553 390
351 965971585 965971942 357
352 965995626 965995632 6
353 965997338 965997554 216
354 965999238 966002255 3017
355 966018184 966018839 655
356 966019135 966020821 1686
357 966021757 966022486 729
358 966047120 966048722 1602
359 966086175 966092446 6271
360 966120961 966121282 321
361 966130195 966131106 911
362 966170183 966171589 1406
363 966172427 966172880 453
364 966174866 966176642 1776
365 966207130 966207784 654
366 966209332 966211285 1953
367 966220703 966220908 205
368 966254998 966255918 920
369 966255981 966256586 605
370 966264542 966267270 2728
371 966280739 966284394 3655
372 966340553 966342853 2300
373 966343359 966344913 1554
374 966348037 966350853 2816
375 966357501 966358532 1031
376 966358677 966360378 1701
377 966369221 966369561 340
378 966403443 966403812 369
379 966428254 966429807 1553
380 966433714 966437768 4054
381 966443713 966445581 1868
382 966451639 966454978 3339
383 966455329 966457125 1796
384 966471228 966472392 1164
385 966494210 966495241 1031
386 966518153 966519980 1827
387 966531792 966533602 1810
388 966533664 966534923 1259
389 966541746 966542909 1163
390 966565457 966566543 1086
391 966576308 966576435 127
392 966600448 966605136 4688
393 966618089 966619319 1230
394 966630217 966633730 3513
395 966643456 966644057 601
396 966651406 966651528 122
397 966686540 966687808 1268
398 966687953 966697660 9707
399 966725430 966725716 286
400 966730022 966731275 1253
401 966772299 966774212 1913
402 966776127 966776175 48
403 966776696 966779323 2627
404 966792734 966793488 754
405 966794192 966795341 1149
406 966796661 966800696 4035
407 966812926 966814085 1159
408 966815698 966816179 481
409 966824245 966824657 412
410 966864277 966865933 1656
411 966879092 966880254 1162
412 966947490 966947549 59
413 966948048 966949344 1296
414 966961068 966962013 945
415 966962024 966962063 39
416 966962066 966962093 27
417 966967662 966969606 1944
418 966971455 966973218 1763
419 966974559 966977392 2833
420 966994037 966995186 1149
421 967001514 967002238 724
422 967023273 967025906 2633
423 967029316 967030518 1202
424 967032055 967033145 1090
425 967033896 967034912 1016
426 967040522 967043001 2479
427 967056660 967060094 3434
428 967061880 967063849 1969
429 967075790 967120817 45027
430 967128824 967129630 806
431 967130778 967131969 1191
432 967135517 967136702 1185
433 967143310 967144160 850
434 967164305 967166369 2064
435 967177645 967180901 3256
436 967187719 967188531 812
437 967209364 967212738 3374
438 967232335 967233946 1611
439 967247330 967248009 679
440 967383284 967383779 495
441 967385565 967385643 78
442 967389444 967390244 800
443 967391965 967393780 1815
444 967417004 967417191 187
445 967417243 967418918 1675
446 967471583 967476197 4614
447 967476261 967478463 2202
448 967663699 967665568 1869
449 967731412 967733653 2241
450 967762194 967764815 2621
451 967776229 967778385 2156
452 967789881 967790621 740
453 967813310 967815623 2313
454 967898300 967899003 703
455 967903073 967905720 2647
456 967962066 967962577 511
457 967983752 967988776 5024
458 967998570 967999123 553
459 968024633 968024819 186
460 968053707 968057513 3806
461 968059194 968059505 311
462 968065678 968067164 1486
463 968075442 968076658 1216
464 968081304 968081501 197
465 968088779 968089475 696
466 968123315 968173339 50024
467 968178685 968188821 10136
468 968190279 968199849 9570
469 968200823 968230976 30153
470 968232954 968261889 28935
471 968264704 968264896 192
472 968336405 968339382 2977
473 968351271 968351974 703
474 968352753 968355500 2747
475 968366905 968369404 2499
476 968380383 968381175 792
477 968383115 968385178 2063
478 968411247 968411871 624
479 968414634 968416615 1981
480 968423652 968426364 2712
481 968426372 968426453 81
482 968431482 968432705 1223
483 968433716 968435103 1387
484 968436730 968436964 234
485 968450636 968453365 2729
486 968454442 968456456 2014
487 968463308 968463974 666
488 968507607 968508758 1151
489 968566317 968566435 118
490 968569775 968571186 1411
491 968581948 968582087 139
492 968587806 968589426 1620
493 968596603 968597619 1016
494 968606315 968607255 940
495 968616456 968617898 1442
496 968634910 968638548 3638
497 968675372 968676835 1463
498 968679427 968680215 788
499 968688760 968688905 145
500 968692881 968693321 440
501 968694092 968694718 626
502 968699798 968701111 1313
503 968713996 968714390 394
504 968722061 968722545 484
505 968726656 968727598 942
506 968754987 968757039 2052
507 968758172 968759038 866
508 968759062 968760025 963
509 968761760 968762623 863
510 968764740 968765758 1018
511 968766242 968767668 1426
512 968773750 968773778 28
513 968801463 968801492 29
514 968803958 968805946 1988
515 968814363 968815379 1016
516 968818522 968819847 1325
517 968827348 968828563 1215
518 968835306 968836665 1359
519 968839682 968840429 747
520 968848102 968849702 1600
521 968849721 968850463 742
522 968851526 968852512 986
523 968856723 968858460 1737
524 968860694 968862335 1641
525 968878816 968878834 18
526 968878936 968879583 647
527 968879670 968880345 675
528 968902166 968903131 965
529 968907138 968908344 1206
530 968908883 968910200 1317
531 968913064 968914368 1304
532 968917074 968918238 1164
533 968927960 968928769 809
534 968930354 968931621 1267
535 968936421 968937379 958
536 968938049 968939017 968
537 968950937 968952497 1560
538 968952816 968953452 636
539 968960842 968962772 1930
540 968973466 968973754 288
541 968978816 968979072 256
542 968981134 968982139 1005
543 968982145 968984049 1904
544 968985362 968986076 714
545 968987081 968988197 1116
546 969019212 969020001 789
547 969023458 969024570 1112
548 969027655 969028336 681
549 969030868 969031793 925
550 969035305 969035858 553
551 969045145 969049007 3862
552 969049351 969050466 1115
553 969058036 969058559 523
554 969060677 969062862 2185
555 969065629 969066297 668
556 969072230 969072893 663
557 969104538 969107599 3061
558 969110311 969116717 6406
559 969153203 969154548 1345
560 969171767 969176466 4699
561 969181475 969186444 4969
562 969188731 969191179 2448
563 969193152 969206216 13064
564 969215864 969217252 1388
565 969220206 969222184 1978
566 969224615 969226900 2285
567 969229037 969232378 3341
568 969237881 969238492 611
569 969240547 969240618 71
570 969244075 969247966 3891
571 969259427 969261439 2012
572 969278927 969283397 4470
573 969292406 969292526 120
574 969292943 969295721 2778
575 969299257 969302488 3231
576 969308158 969317652 9494
577 969322761 969329654 6893
578 969332622 969332929 307
579 969345158 969345262 104
580 969376423 969378542 2119
581 969408586 969410314 1728
582 969455030 969457185 2155
583 969458337 969459355 1018
584 969493263 969494040 777
585 969539202 969542685 3483
586 969555993 969558326 2333
587 969572090 969574462 2372
588 969589775 969590440 665
589 969629068 969630951 1883
590 969640419 969640579 160
591 969649906 969650741 835
592 969669751 969670409 658
593 969670790 969670977 187
594 969678157 969681562 3405
595 969717809 969721228 3419
596 969741560 969742162 602
597 969742199 969742210 11
598 969742269 969744576 2307
599 969747238 969749229 1991
600 969750734 969753943 3209
601 969757018 969773026 16008
602 969806271 969806467 196
603 969810878 969812309 1431
604 969812514 969813670 1156
605 969824554 969824738 184
606 969826868 969827984 1116
607 969828026 969828039 13
608 969828073 969828876 803
609 969831521 969835028 3507
610 969839325 969839599 274
611 969842558 969849919 7361
612 969854672 969855419 747
613 969883529 969885454 1925
614 969888023 969888750 727
615 969889391 969890379 988
616 969890858 969890931 73
617 969893128 969895912 2784
618 969906679 969914506 7827
619 969917004 969918418 1414
620 969920035 969920141 106
621 969924690 969925482 792
622 969928057 969931843 3786
623 969932182 969935766 3584
624 969936258 969938509 2251
625 969939183 969940229 1046
626 969940778 969942006 1228
627 969942970 969943909 939
628 969944055 969944718 663
629 969949076 969950405 1329
630 969952015 969952864 849
631 969953780 969954543 763
632 969958473 969959076 603
633 969960759 969962334 1575
634 969962386 969963994 1608
635 969964310 969965152 842
636 969974308 969974571 263
637 969979519 969985191 5672
638 970008236 970009763 1527
639 970010062 970013215 3153
640 970013674 970015526 1852
641 970015961 970026361 10400
642 970027693 970032596 4903
643 970035590 970037056 1466
644 970037515 970039388 1873
645 970048288 970048830 542
646 970051661 970052731 1070
647 970053343 970055939 2596
648 970056509 970059229 2720
649 970059855 970060819 964
650 970060884 970062967 2083
651 970063296 970065516 2220
652 970065971 970079365 13394
653 970086060 970086238 178
654 970097402 970100690 3288
655 970146859 970150347 3488
656 970170027 970171022 995
657 970174373 970174373 0
658 970175589 970175589 0
659 970176363 970176371 8
660 970177579 970177579 0
661 970188688 970190537 1849
662 970210104 970211832 1728
663 970219927 970221002 1075
664 970227397 970227421 24
665 970228894 970230445 1551
666 970236649 970239237 2588
667 970242019 970242799 780
668 970248863 970254142 5279
669 970294911 970296010 1099
670 970319312 970326186 6874
671 970405902 970406244 342
672 970408161 970408399 238
673 970411290 970412781 1491
674 970412965 970414153 1188
675 970421813 970426256 4443
676 970539326 970544009 4683
677 970554692 970565700 11008
678 970584625 970586368 1743
679 970592304 970592478 174
680 970598507 970608634 10127
681 970672642 970675820 3178
682 970682398 970683027 629
683 970683779 970683812 33
684 970683815 970683851 36
685 970683903 970692093 8190
686 970694627 970695724 1097
687 970758160 970760237 2077
688 970763196 970763784 588
689 970777678 970780178 2500
690 970787993 970789463 1470
691 970804452 970808494 4042
692 970827423 970843369 15946
693 970848686 970858696 10010
694 970901164 970902319 1155
695 970926997 970930815 3818
696 970961689 970965075 3386
697 970966115 970970428 4313
698 970971363 970973469 2106
699 971014179 971014269 90
700 971044771 971046482 1711
701 971068791 971070670 1879
702 971075738 971075897 159
703 971096310 971098772 2462
704 971110609 971110808 199
705 971175628 971176298 670
706 971182105 971183474 1369
707 971185236 971187089 1853
708 971187281 971187383 102
709 971193550 971193591 41
710 971198668 971201624 2956
711 971231745 971234972 3227
712 971235726 971236637 911
713 971246728 971249658 2930
714 971253048 971255079 2031
715 971258989 971259153 164
716 971265717 971266746 1029
717 971266793 971268432 1639
718 971269067 971271445 2378
719 971283721 971283884 163
720 971283982 971287005 3023
721 971287581 971287625 44
722 971287627 971287660 33
723 971287876 971289096 1220
724 971291952 971292267 315
725 971293866 971296535 2669
726 971321073 971332352 11279
727 971332642 971339358 6716
728 971339456 971347538 8082
729 971347754 971351845 4091
730 971354464 971361493 7029
731 971363682 971373812 10130
732 971377525 971379215 1690
733 971397690 971398339 649
734 971400227 971401223 996
735 971403446 971405860 2414
736 971408038 971408697 659
737 971411560 971412994 1434
738 971413179 971414006 827
739 971414800 971415594 794
740 971444084 971446579 2495
741 971460805 971462598 1793
742 971502100 971502328 228
743 971528012 971530759 2747
744 971596522 971599454 2932
745 971601661 971603367 1706
746 971610663 971612815 2152
747 971614889 971622052 7163
