# seg	start    	stop     	duration
0	990576009	990577395	1386
1	990577396	990577397	1
2	990577399	990577400	1
3	990577402	990577404	2
4	990577405	990577409	4
5	990577410	990577411	1
6	990577413	990577415	2
7	990577416	990577418	2
8	990577424	990577425	1
9	990577426	990577428	2
10	990577431	990577432	1
11	990577433	990577442	9
12	990577443	990577444	1
13	990577445	990577448	3
14	990577456	990577458	2
15	990577460	990577462	2
16	990577468	990577469	1
17	990577471	990577472	1
18	990577474	990577475	1
19	990577476	990577477	1
20	990577478	990577480	2
21	990577482	990577483	1
22	990577484	990577485	1
23	990577488	990577489	1
24	990577503	990577504	1
25	990577506	990577508	2
26	990577509	990577510	1
27	990577512	990577514	2
28	990577516	990577518	2
29	990577519	990577522	3
30	990577523	990577524	1
31	990577525	990577531	6
32	990577534	990577535	1
33	990577536	990577537	1
34	990577538	990577539	1
35	990577541	990577543	2
36	990577544	990577546	2
37	990577547	990578350	803
38	990578351	990578352	1
39	990578353	990578354	1
40	990578355	990578356	1
41	990578357	990578361	4
42	990578364	990578365	1
43	990578366	990578367	1
44	990578368	990578380	12
45	990578381	990578382	1
46	990578384	990578386	2
47	990578389	990578395	6
48	990578401	990578404	3
49	990578406	990578409	3
50	990578410	990578411	1
51	990578412	990578415	3
52	990578416	990578417	1
53	990578421	990578422	1
54	990578423	990578424	1
55	990578428	990578429	1
56	990578431	990578432	1
57	990578435	990578437	2
58	990578438	990578442	4
59	990578444	990578446	2
60	990578448	990578449	1
61	990578450	990578452	2
62	990578453	990578455	2
63	990578459	990578461	2
64	990578462	990578463	1
65	990578466	990578467	1
66	990578472	990578475	3
67	990578478	990578480	2
68	990578481	990578482	1
69	990578484	990578485	1
70	990578487	990578492	5
71	990578493	990578813	320
72	990578815	990578816	1
73	990578817	990578821	4
74	990578822	990578823	1
75	990578826	990578830	4
76	990578833	990578834	1
77	990578836	990578837	1
78	990578839	990578840	1
79	990578841	990578842	1
80	990578843	990578844	1
81	990578845	990578847	2
82	990578849	990578852	3
83	990578856	990578858	2
84	990578859	990578862	3
85	990578863	990578864	1
86	990578865	990578866	1
87	990578871	990578875	4
88	990578882	990578883	1
89	990578884	990578885	1
90	990578887	990578888	1
91	990578889	990578890	1
92	990578891	990578895	4
93	990578896	990578897	1
94	990578898	990578899	1
95	990578906	990578907	1
96	990578910	990578914	4
97	990578917	990578920	3
98	990578921	990578922	1
99	990578924	990578925	1
100	990578942	990578943	1
101	990578954	990579318	364
102	990579319	990579323	4
103	990579324	990579325	1
104	990579326	990579327	1
105	990579328	990579330	2
106	990579331	990579336	5
107	990579337	990579341	4
108	990579342	990579344	2
109	990579345	990579346	1
110	990579350	990579351	1
111	990579354	990579356	2
112	990579357	990579358	1
113	990579626	990580119	493
114	990580120	990580124	4
115	990580125	990580127	2
116	990580128	990580131	3
117	990580132	990580136	4
118	990580138	990580142	4
119	990580143	990580147	4
120	990580148	990580153	5
121	990580156	990580158	2
122	990580159	990580161	2
123	990580163	990580165	2
124	990580167	990580169	2
125	990580171	990580172	1
126	990580173	990580174	1
127	990580175	990580176	1
128	990580177	990580179	2
129	990580180	990580182	2
130	990580185	990580186	1
131	990580187	990580189	2
132	990580191	990580196	5
133	990580197	990580198	1
134	990580199	990580200	1
135	990580202	990580203	1
136	990580207	990580209	2
137	990580210	990580214	4
138	990580215	990580217	2
139	990580220	990580221	1
140	990580223	990580224	1
141	990580227	990580228	1
142	990580229	990580230	1
143	990580232	990580234	2
144	990580236	990580237	1
145	990580238	990580239	1
146	990580241	990580243	2
147	990580245	990580246	1
148	990580247	990580249	2
149	990580250	990580251	1
150	990580252	990580254	2
151	990580256	990580616	360
152	990580617	990580618	1
153	990580620	990580623	3
154	990580624	990580628	4
155	990580631	990580632	1
156	990580634	990580635	1
157	990580636	990580637	1
158	990580638	990580639	1
159	990580640	990580642	2
160	990580644	990580645	1
161	990580646	990580647	1
162	990580654	990580655	1
163	990580656	990580658	2
164	990580667	990580669	2
165	990580674	990580675	1
166	990580679	990580681	2
167	990580700	990580701	1
168	990580710	990580711	1
169	990580716	990580718	2
170	990580733	990580734	1
171	990580752	990580753	1
172	990580755	990581192	437
173	990581193	990581213	20
174	990581214	990581219	5
175	990581220	990581225	5
176	990581227	990581228	1
177	990581230	990581233	3
178	990581234	990581237	3
179	990581238	990581239	1
180	990581240	990581245	5
181	990581246	990581247	1
182	990581248	990581251	3
183	990581253	990581254	1
184	990581256	990581259	3
185	990581260	990581261	1
186	990581263	990581264	1
187	990581272	990581274	2
188	990581276	990581278	2
189	990581280	990581284	4
190	990581292	990581293	1
191	990581294	990581295	1
192	990581296	990581297	1
193	990581299	990581300	1
194	990581303	990581306	3
195	990581312	990581313	1
196	990581314	990581315	1
197	990581318	990581321	3
198	990581325	990581326	1
199	990581328	990581330	2
200	990581331	990581333	2
201	990581336	990581764	428
202	990581765	990581777	12
203	990581779	990581784	5
204	990581785	990581788	3
205	990581790	990581809	19
206	990581810	990581812	2
207	990581813	990581818	5
208	990581819	990581828	9
209	990581829	990581831	2
210	990581832	990581836	4
211	990581837	990581838	1
212	990581839	990581840	1
213	990581841	990581846	5
214	990581847	990581848	1
215	990581849	990581853	4
216	990581857	990581859	2
217	990581860	990581870	10
218	990581872	990581878	6
219	990581879	990581881	2
220	990581882	990581886	4
221	990581887	990581890	3
222	990581892	990581893	1
223	990581894	990581895	1
224	990581899	990581903	4
225	990581908	990581918	10
226	990581919	990581920	1
227	990581922	990581926	4
228	990581927	990581928	1
229	990581930	990581931	1
230	990581932	990581933	1
231	990581935	990581936	1
232	990581942	990581943	1
233	990581947	990581949	2
234	990581959	990581963	4
235	990581968	990581969	1
236	990581975	990581976	1
237	990581986	990581987	1
238	990581988	990581992	4
239	990581993	990581994	1
240	990581995	990581996	1
241	990582002	990582004	2
242	990582019	990582020	1
243	990582024	990582027	3
244	990582029	990582030	1
245	990582035	990582036	1
246	990582041	990582043	2
247	990582050	990582051	1
248	990582064	990582065	1
249	990582084	990582085	1
250	990582101	990582102	1
251	990582104	990582105	1
252	990582117	990582118	1
253	990582119	990582120	1
254	990582127	990582128	1
255	990582134	990582135	1
256	990582140	990582141	1
257	990582151	990582152	1
258	990582153	990582156	3
259	990582158	990582161	3
260	990582162	990582163	1
261	990582165	990582166	1
262	990582172	990582173	1
263	990582184	990582185	1
264	990582187	990582189	2
265	990582194	990582195	1
266	990582196	990582197	1
267	990582201	990582202	1
268	990582207	990582208	1
269	990582209	990582210	1
270	990582996	990583629	633
271	990583630	990583632	2
272	990583633	990583638	5
273	990583640	990583642	2
274	990583643	990583646	3
275	990583647	990583651	4
276	990583652	990583657	5
277	990583658	990583660	2
278	990583661	990583664	3
279	990583665	990583669	4
280	990583672	990583677	5
281	990583678	990583682	4
282	990583683	990583684	1
283	990583689	990583693	4
284	990583885	990584334	449
285	990584335	990584341	6
286	990584342	990584351	9
287	990584352	990584353	1
288	990584354	990584356	2
289	990584357	990584358	1
290	990584359	990584365	6
291	990584366	990584368	2
292	990584369	990584370	1
293	990584371	990584373	2
294	990584374	990584375	1
295	990584376	990584378	2
296	990584379	990584381	2
297	990584383	990584384	1
298	990584385	990584392	7
299	990584394	990584395	1
300	990584396	990584400	4
301	990584401	990584402	1
302	990584404	990584408	4
303	990584409	990584410	1
304	990584411	990584412	1
305	990584413	990584414	1
306	990584415	990584417	2
307	990584518	990584889	371
308	990584890	990584891	1
309	990584892	990584901	9
310	990584902	990584904	2
311	990584905	990584906	1
312	990584907	990584909	2
313	990584912	990584913	1
314	990584918	990584920	2
315	990584922	990584925	3
316	990584926	990584927	1
317	990584928	990584932	4
318	990584933	990584934	1
319	990584935	990584936	1
320	990584937	990584939	2
321	990584940	990584942	2
322	990584944	990584945	1
323	990584946	990584949	3
324	990584951	990584953	2
325	990584957	990584958	1
326	990584966	990584967	1
327	990587580	990587581	1
328	990597887	990598191	304
329	990598192	990598205	13
330	990598206	990598207	1
331	990598208	990598211	3
332	990598212	990598219	7
333	990598221	990598222	1
334	990598223	990598224	1
335	990598225	990598226	1
336	990598228	990598229	1
337	990598231	990598233	2
338	990598235	990598236	1
339	990598237	990598238	1
340	990598239	990598243	4
341	990598244	990598245	1
342	990598246	990598249	3
343	990598250	990598252	2
344	990598253	990598254	1
345	990598256	990598258	2
346	990598259	990598261	2
347	990598262	990598263	1
348	990598265	990598266	1
349	990598268	990598269	1
350	990598273	990598274	1
351	990598276	990598281	5
352	990598284	990598285	1
353	990598288	990598289	1
354	990598291	990598292	1
355	990605053	990605535	482
356	990605536	990605545	9
357	990605546	990605555	9
358	990605556	990605565	9
359	990605566	990605568	2
360	990605569	990605576	7
361	990605577	990605582	5
362	990605584	990605585	1
363	990605586	990605587	1
364	990605588	990605592	4
365	990605594	990605595	1
366	990605599	990605605	6
367	990605606	990605607	1
368	990605608	990605612	4
369	990605615	990605616	1
370	990605623	990605625	2
371	990605626	990605627	1
372	990605628	990605629	1
373	990613995	990614497	502
374	990614498	990614512	14
375	990614513	990614519	6
376	990614522	990614523	1
377	990614524	990614525	1
378	990614526	990614527	1
379	990614529	990614530	1
380	990614531	990614532	1
381	990614534	990614538	4
382	990614539	990614540	1
383	990614542	990614543	1
384	990614545	990614549	4
385	990614550	990614551	1
386	990614552	990614553	1
387	990614554	990614560	6
388	990614561	990614563	2
389	990614564	990614565	1
390	990614569	990614570	1
391	990614572	990614578	6
392	990614579	990614580	1
393	990614586	990614587	1
394	990622966	990622967	1
395	990623020	990623021	1
396	990623077	990623078	1
397	990624658	990624659	1
398	990629025	990629623	598
399	990629624	990629636	12
400	990629637	990629647	10
401	990629648	990629649	1
402	990629650	990629658	8
403	990629660	990629663	3
404	990629664	990629665	1
405	990629667	990629671	4
406	990629672	990629678	6
407	990629679	990629681	2
408	990629682	990629684	2
409	990629687	990629693	6
410	990629694	990629695	1
411	990629697	990629698	1
412	990629699	990629706	7
413	990629707	990629708	1
414	990629709	990629711	2
415	990635415	990635416	1
416	990638776	990639225	449
417	990639226	990639231	5
418	990639232	990639237	5
419	990639239	990639240	1
420	990639241	990639243	2
421	990639244	990639252	8
422	990639253	990639256	3
423	990639257	990639261	4
424	990639262	990639268	6
425	990639270	990639272	2
426	990639273	990639275	2
427	990639276	990639278	2
428	990639284	990639288	4
429	990639289	990639290	1
430	990639291	990639292	1
431	990639294	990639298	4
432	990639299	990639300	1
433	990649765	990649766	1
434	990649831	990650634	803
435	990650635	990650642	7
436	990650643	990650645	2
437	990650646	990650648	2
438	990650649	990650650	1
439	990650651	990650656	5
440	990650657	990650658	1
441	990650660	990650661	1
442	990650664	990650665	1
443	990650666	990650668	2
444	990650669	990650670	1
445	990650671	990650674	3
446	990650675	990650677	2
447	990650679	990650681	2
448	990650683	990650688	5
449	990650690	990650693	3
450	990650694	990650695	1
451	990650696	990650697	1
452	990650699	990650701	2
453	990650704	990650705	1
454	990650706	990650707	1
455	990650708	990650709	1
456	990650711	990650713	2
457	990669621	990669622	1
458	990696785	990697120	335
459	990697121	990697128	7
460	990697129	990697135	6
461	990697136	990697137	1
462	990697138	990697144	6
463	990697145	990697147	2
464	990697148	990697151	3
465	990697152	990697154	2
466	990697155	990697156	1
467	990697159	990697160	1
468	990697164	990697165	1
469	990697166	990697167	1
470	990697171	990697173	2
471	990697174	990697178	4
472	990697179	990697180	1
473	990697181	990697182	1
474	990697183	990697184	1
475	990697185	990697189	4
476	990697190	990697192	2
477	990697193	990697194	1
478	990697196	990697197	1
479	990697201	990697203	2
480	990697204	990697212	8
481	990717199	990717611	412
482	990717612	990717614	2
483	990717615	990717635	20
484	990717636	990717637	1
485	990717638	990717640	2
486	990717641	990717647	6
487	990717648	990717650	2
488	990717651	990717654	3
489	990717656	990717657	1
490	990717662	990717663	1
491	990717671	990717672	1
492	990717679	990717682	3
493	990717683	990717696	13
494	990717697	990717698	1
495	990717699	990717700	1
496	990717703	990717708	5
497	990717709	990717711	2
498	990743779	990743780	1
499	990783660	990783661	1
500	990785625	990788899	3274
501	990788900	990788916	16
502	990788917	990788920	3
503	990788921	990788929	8
504	990788931	990788936	5
505	990788937	990788938	1
506	990788939	990788941	2
507	990788942	990788943	1
508	990788945	990788948	3
509	990788950	990788952	2
510	990788954	990788972	18
511	990788973	990788976	3
512	990788977	990788978	1
513	990788979	990788981	2
514	990788982	990788986	4
515	990788987	990788994	7
516	990789186	990789187	1
517	990789656	990789657	1
518	990790202	990790203	1
519	990792377	990795338	2961
520	990795339	990795365	26
521	990795367	990795369	2
522	990795370	990795374	4
523	990795375	990795376	1
524	990795377	990795378	1
525	990795379	990795383	4
526	990795385	990795392	7
527	990795394	990795400	6
528	990795401	990795402	1
529	990795404	990795407	3
530	990795408	990795409	1
531	990795410	990795415	5
532	990795417	990795419	2
533	990795420	990795424	4
534	990795428	990795429	1
535	990795430	990795431	1
536	990795432	990795437	5
537	990795439	990795440	1
538	990797390	990799549	2159
539	990799568	990800150	582
540	990802450	990806360	3910
541	990806361	990806372	11
542	990806373	990806381	8
543	990806382	990806389	7
544	990806390	990806396	6
545	990806397	990806403	6
546	990806405	990806412	7
547	990806413	990806424	11
548	990806434	990807004	570
549	990807005	990807041	36
550	990807042	990807043	1
551	990807044	990807045	1
552	990807046	990807049	3
553	990807050	990807055	5
554	990807056	990807071	15
555	990807072	990807073	1
556	990807074	990807085	11
557	990807086	990807093	7
558	990807094	990807102	8
559	990807103	990807107	4
560	990807108	990807109	1
561	990807110	990807112	2
562	990807113	990807115	2
563	990807116	990807118	2
564	990807132	990807817	685
565	990807818	990807824	6
566	990807825	990807834	9
567	990807836	990807843	7
568	990807844	990808559	715
569	990808560	990809162	602
570	990809163	990809167	4
571	990809168	990809179	11
572	990809181	990809189	8
573	990809190	990809203	13
574	990809204	990809207	3
575	990809209	990809225	16
576	990809226	990809230	4
577	990809231	990809234	3
578	990809235	990809239	4
579	990809348	990809625	277
580	990809626	990809640	14
581	990809641	990809657	16
582	990809658	990809662	4
583	990809663	990809700	37
584	990809701	990809702	1
585	990809896	990810302	406
586	990810303	990810312	9
587	990810313	990810318	5
588	990810319	990810330	11
589	990810331	990810341	10
590	990810342	990810351	9
591	990810352	990810354	2
592	990810356	990810718	362
593	990810719	990810740	21
594	990810741	990810746	5
595	990810747	990810753	6
596	990810755	990810765	10
597	990810766	990810770	4
598	990810771	990810777	6
599	990810778	990810779	1
600	990810780	990810781	1
601	990810782	990810788	6
602	990810789	990810794	5
603	990811124	990811383	259
604	990811384	990811414	30
605	990811415	990811430	15
606	990811431	990811437	6
607	990811438	990811439	1
608	990811440	990811448	8
609	990811449	990811451	2
610	990811452	990811454	2
611	990811455	990811456	1
612	990811482	990812053	571
613	990812054	990812058	4
614	990812059	990812063	4
615	990812064	990812074	10
616	990812076	990812081	5
617	990812082	990812099	17
618	990812100	990812105	5
619	990812107	990812108	1
620	990812109	990812110	1
621	990812111	990812113	2
622	990812361	990812362	1
623	990813014	990813232	218
624	990813233	990813237	4
625	990813238	990813246	8
626	990813247	990813250	3
627	990813251	990813253	2
628	990813254	990813255	1
629	990813256	990813257	1
630	990813259	990813262	3
631	990813263	990813264	1
632	990813265	990813268	3
633	990813270	990813273	3
634	990813275	990813276	1
635	990813277	990813280	3
636	990813281	990813283	2
637	990813284	990813294	10
638	990813296	990813301	5
639	990813302	990813306	4
640	990813308	990813311	3
641	990813312	990813313	1
642	990813314	990813316	2
643	990814760	990814761	1
644	990816359	990816360	1
645	990818390	990818391	1
646	990862973	990862974	1
647	990863143	990863144	1
648	990863387	990863388	1
649	990863478	990869084	5606
650	990869086	990869089	3
651	990869092	990869093	1
652	990869094	990869096	2
653	990869098	990869100	2
654	990869101	990869102	1
655	990869104	990869105	1
656	990869106	990869109	3
657	990869112	990869114	2
658	990869124	990869126	2
659	990869130	990869131	1
660	990869134	990869135	1
661	990869153	990869154	1
662	990869160	990869162	2
663	990869167	990869168	1
664	990869169	990869170	1
665	990869174	990869175	1
666	990869177	990869178	1
667	990869179	990869180	1
668	990869184	990869185	1
669	990869197	990869198	1
670	990869199	990869201	2
671	990869210	990869211	1
672	990869212	990869213	1
673	990869214	990869216	2
674	990869217	990869218	1
675	990869221	990869222	1
676	990869223	990869224	1
677	990869225	990869226	1
678	990869229	990869231	2
679	990869237	990869238	1
680	990869242	990869244	2
681	990869247	990869248	1
682	990869257	990869258	1
683	990869259	990869260	1
684	990869266	990869267	1
685	990869269	990869270	1
686	990869271	990869272	1
687	990869273	990869274	1
688	990869275	990869279	4
689	990869280	990869281	1
690	990869287	990869288	1
691	990869289	990869291	2
692	990869298	990869299	1
693	990869307	990869308	1
694	990869314	990869316	2
695	990869319	990869320	1
696	990869321	990869322	1
697	990869329	990869331	2
698	990869336	990869337	1
699	990869338	990869339	1
700	990869341	990869342	1
701	990869345	990869346	1
702	990869349	990869353	4
703	990869355	990869356	1
704	990869357	990869359	2
705	990869363	990869364	1
706	990869366	990869368	2
707	990869371	990869372	1
708	990869373	990869375	2
709	990869377	990869378	1
710	990869379	990869381	2
711	990869384	990869387	3
712	990869391	990869392	1
713	990869393	990869397	4
714	990869398	990869399	1
715	990869400	990869401	1
716	990869402	990869403	1
717	990869405	990869406	1
718	990869407	990869408	1
719	990869409	990869410	1
720	990869412	990869414	2
721	990869415	990869417	2
722	990869418	990869419	1
723	990869420	990869423	3
724	990869425	990869431	6
725	990869432	990869434	2
726	990869436	990869439	3
727	990869440	990869442	2
728	990869443	990869444	1
729	990869445	990869446	1
730	990869449	990869451	2
731	990869454	990869455	1
732	990869458	990869459	1
733	990869460	990869461	1
734	990869463	990869464	1
735	990869466	990869467	1
736	990869470	990869471	1
737	990869472	990869475	3
738	990869476	990869478	2
739	990869482	990869483	1
740	990869488	990869489	1
741	990869490	990869492	2
742	990869495	990869496	1
743	990869500	990869501	1
744	990869504	990869505	1
745	990869506	990869509	3
746	990869517	990869520	3
747	990869522	990869523	1
748	990869524	990869525	1
749	990869527	990869528	1
750	990869538	990869539	1
751	990869542	990869543	1
752	990869547	990869548	1
753	990869553	990869554	1
754	990869574	990869575	1
755	990869576	990869578	2
756	990869579	990869581	2
757	990869582	990869583	1
758	990869585	990869587	2
759	990869588	990869589	1
760	990869591	990869592	1
761	990869594	990869595	1
762	990869597	990869598	1
763	990869599	990869600	1
764	990869602	990869603	1
765	990869613	990869615	2
766	990869618	990869619	1
767	990869621	990869622	1
768	990869623	990869626	3
769	990869628	990869629	1
770	990869631	990869632	1
771	990869633	990869636	3
772	990869641	990869642	1
773	990869644	990869645	1
774	990869657	990869658	1
775	990869659	990869660	1
776	990869669	990869670	1
777	990869671	990869672	1
778	990869673	990869674	1
779	990869678	990869679	1
780	990869682	990869684	2
781	990869691	990870254	563
782	990870255	990870264	9
783	990870266	990870268	2
784	990870269	990870271	2
785	990870272	990870273	1
786	990870274	990870275	1
787	990870276	990870285	9
788	990870286	990871316	1030
789	990871317	990871364	47
790	990871366	990871367	1
791	990871368	990871370	2
792	990871373	990871374	1
793	990871376	990871378	2
794	990871379	990871381	2
795	990871382	990871384	2
796	990871387	990871388	1
797	990871391	990871393	2
798	990871397	990871398	1
799	990871401	990871402	1
800	990871404	990871406	2
801	990871409	990871410	1
802	990871421	990871422	1
803	990871423	990871424	1
804	990871427	990871430	3
805	990871434	990871435	1
806	990871437	990871438	1
807	990871439	990871441	2
808	990871448	990871449	1
809	990871458	990871460	2
810	990871467	990871468	1
811	990871479	990871480	1
812	990871557	990871558	1
813	990871764	990874073	2309
814	990874074	990874110	36
815	990874111	990874134	23
816	990874136	990874139	3
817	990874140	990874150	10
818	990874151	990874165	14
819	990874166	990874169	3
820	990874171	990874175	4
821	990877286	990879716	2430
822	990879717	990879718	1
823	990879719	990879720	1
824	990879722	990879726	4
825	990879728	990879729	1
826	990879730	990879731	1
827	990879735	990879738	3
828	990879739	990879740	1
829	990879741	990879748	7
830	990879750	990879753	3
831	990879755	990879759	4
832	990879760	990879764	4
833	990879766	990879767	1
834	990879774	990879776	2
835	990879778	990879779	1
836	990879783	990879786	3
837	990879787	990879789	2
838	990881469	990881470	1
839	990881585	990881586	1
840	990881598	990882022	424
841	990882023	990882025	2
842	990882026	990882368	342
843	990882370	990882372	2
844	990882373	990882374	1
845	990882375	990882379	4
846	990882381	990882383	2
847	990882384	990882387	3
848	990882388	990882389	1
849	990882390	990882392	2
850	990882394	990882395	1
851	990882399	990882400	1
852	990882404	990882407	3
853	990882408	990882409	1
854	990882410	990882415	5
855	990882418	990882421	3
856	990882424	990882427	3
857	990882430	990882431	1
858	990882635	990882636	1
859	990882783	990882785	2
860	990882894	990882895	1
861	990882921	990882922	1
862	990883003	990883347	344
863	990883348	990883353	5
864	990883354	990883356	2
865	990883357	990883358	1
866	990883359	990883360	1
867	990883361	990883362	1
868	990883363	990883366	3
869	990883367	990883368	1
870	990883373	990883374	1
871	990883375	990883377	2
872	990883384	990883385	1
873	990883391	990883392	1
874	990883395	990883397	2
875	990883398	990883399	1
876	990883400	990883404	4
877	990883405	990883406	1
878	990883408	990883409	1
879	990883411	990883412	1
880	990883413	990883414	1
881	990883417	990883419	2
882	990883425	990883428	3
883	990883606	990883955	349
884	990883956	990883966	10
885	990883967	990883978	11
886	990883981	990883982	1
887	990883983	990883986	3
888	990883989	990883990	1
889	990883992	990883995	3
890	990883996	990883998	2
891	990884000	990884003	3
892	990884005	990884006	1
893	990884007	990884008	1
894	990884009	990884010	1
895	990884012	990884013	1
896	990884015	990884019	4
897	990884021	990884024	3
898	990884025	990884026	1
899	990884029	990884031	2
900	990884032	990884036	4
901	990884039	990884040	1
902	990884045	990884048	3
903	990884050	990884053	3
904	990884054	990884055	1
905	990884227	990884228	1
906	990884305	990884306	1
907	990884392	990884393	1
908	990884397	990884398	1
909	990884520	990884521	1
910	990884522	990884524	2
911	990884530	990884531	1
912	990884537	990884539	2
913	990884540	990884541	1
914	990884545	990884546	1
915	990884548	990884550	2
916	990884556	990884558	2
917	990884643	990885015	372
918	990885016	990885017	1
919	990885018	990885041	23
920	990885042	990885047	5
921	990885048	990885049	1
922	990885050	990885053	3
923	990885054	990885055	1
924	990885056	990885061	5
925	990885062	990885069	7
926	990885071	990885078	7
927	990885079	990885083	4
928	990885084	990885087	3
929	990885088	990885089	1
930	990885090	990885091	1
931	990885092	990885093	1
932	990885097	990885100	3
933	990885101	990885102	1
934	990885103	990885105	2
935	990885106	990885107	1
936	990885110	990885111	1
937	990885561	990885562	1
938	990885823	990885824	1
939	990886105	990886106	1
940	990887199	990888574	1375
941	990888575	990888586	11
942	990888587	990888590	3
943	990888591	990888611	20
944	990890384	990890385	1
945	990890390	990890392	2
946	990890416	990890417	1
947	990890418	990890419	1
948	990890420	990890421	1
949	990890461	990890462	1
950	990890481	990890482	1
951	990890499	990890500	1
952	990890508	990890509	1
953	990890521	990890522	1
954	990890525	990890526	1
955	990890598	990890599	1
956	990890802	990890803	1
957	990890827	990890829	2
958	990890831	990890834	3
959	990890843	990890844	1
960	990890877	990890878	1
961	990890915	990890919	4
962	990890920	990890921	1
963	990890939	990890940	1
964	990890943	990890944	1
965	990891049	990891050	1
966	990891061	990891062	1
967	990891169	990891170	1
968	990891180	990891181	1
969	990891187	990891188	1
970	990891227	990891228	1
971	990891239	990891240	1
972	990891248	990891249	1
973	990891371	990891372	1
974	990891373	990891740	367
975	990891741	990891744	3
976	990891745	990891755	10
977	990891756	990891764	8
978	990891765	990891769	4
979	990891770	990891771	1
980	990891773	990891774	1
981	990891775	990891776	1
982	990891778	990891779	1
983	990891780	990891781	1
984	990891782	990891783	1
985	990891784	990891786	2
986	990891788	990891790	2
987	990891791	990891794	3
988	990891796	990891800	4
989	990891801	990891803	2
990	990891804	990891805	1
991	990891806	990891809	3
992	990891810	990891812	2
993	990891813	990891814	1
994	990891816	990891818	2
995	990891820	990891821	1
996	990891824	990891832	8
997	990891969	990891970	1
998	990891983	990891984	1
999	990892043	990892044	1
1000	990892115	990892116	1
1001	990892158	990892159	1
1002	990892202	990892204	2
1003	990892217	990892218	1
1004	990892241	990892242	1
1005	990892355	990892356	1
1006	990892365	990892366	1
1007	990892377	990892378	1
1008	990892379	990892380	1
1009	990892415	990892416	1
1010	990892442	990892443	1
1011	990892479	990892480	1
1012	990892484	990892486	2
1013	990892490	990892491	1
1014	990892498	990892499	1
1015	990892505	990892506	1
1016	990892513	990892520	7
1017	990892527	990892528	1
1018	990892529	990892532	3
1019	990892534	990892954	420
1020	990892956	990892968	12
1021	990892969	990892973	4
1022	990892975	990892977	2
1023	990892979	990892981	2
1024	990892984	990892987	3
1025	990892988	990892989	1
1026	990892992	990892993	1
1027	990892994	990892996	2
1028	990893002	990893004	2
1029	990893007	990893008	1
1030	990893009	990893010	1
1031	990893011	990893013	2
1032	990893014	990893016	2
1033	990893017	990893019	2
1034	990893020	990893021	1
1035	990893027	990893029	2
1036	990893032	990893033	1
