E187124 Swift XRT GRB150925A Long 04:09:28.81 1127189385.81 121.0 27 227.534292 -19.633000 0.000417 NaN YES 2016-01-26
E188893 Swift UVOT GRB151001A Long 15:04:22.93 1127747079.93 8.94 1.07 233.728750 10.967278 0.000119 NaN YES 2016-01-26
E188928 Swift XRT GRB151001B Long 18:29:36.78 1127759393.78 109.0 17 336.839083 64.693750 0.000444 NaN YES 2016-01-26
E189755 Swift XRT GRB151004A Long 18:09:04.77 1128017361.77 128.40 17.77 213.632167 -64.939139 0.001944 NaN YES 2016-01-26
E190216 Swift XRT GRB151006A Long 09:55:01.88 1128160518.88 203.9 41.6 147.425583 70.503028 0.000417 NaN YES 2016-01-26
E194197 Swift UVOT GRB151021A Long 01:29:12.57 1129426169.57 110.2 3.7 337.643458 -33.197306 0.000117 2.33 YES 2016-01-26
E194587 Swift XRT GRB151022A Long 14:06:32.11 1129558009.11 116.7 23.0 349.196542 55.811722 0.000444 NaN YES 2016-01-26
E194829 Swift XRT GRB151023A Long 13:43:04.81 1129643001.81 10.66 4.41 270.984583 -8.316389 0.000611 NaN YES 2015-01-26
E195704 Swift XRT GRB151027A Long 03:58:24.15 1129953521.15 129.69 5.55 272.486875 61.353306 0.000389 0.81 YES 2016-01-26
E195894 Swift XRT GRB151027B Long 22:40:40.66 1130020857.66 80.0 35.78 76.219458 -6.450194 0.000389 4.063 YES 2016-01-26
EXXXXX1 Swift UVOT GRB151029A Long 07:49:39 1130140196.0 8.95 2.32 38.537083 -35.356000 0.030000 1.423 YES 2016-01-27
E196797 Swift XRT GRB151031A Ambiguous 05:50:30.34 1130305847.34 5.0 2.24 83.195833 -39.121833 0.000417 1.167 YES 2016-01-26
E198744 Swift BAT GRB151107A Ambiguous 17:19:36.61 1130951993.61 NaN NaN 217.139167 -59.680000 0.045000 NaN YES 2016-01-26
E199730 Swift XRT GRB151111A Long 08:33:23.41 1131266020.41 76.93 12.59 56.844792 -44.161472 0.000417 3.5 YES 2016-01-26
E200054 Swift XRT GRB151112A Ambiguous 13:44:48.08 1131371105.08 19.32 31.24 2.053667 -61.663278 0.000417 4.1 YES 2016-01-26
E200499 Swift UVOT GRB151114A Ambiguous 09:59:34.15 1131530391.15 4.86 0.98 120.943042 -61.027778 0.000125 NaN YES 2016-01-26
E201488 Swift XRT GRB151118A Long 03:06:30.01 1131851207.01 23.4 10.5 57.171792 65.901667 0.000417 NaN YES 2016-01-26
E203926 Swift XRT GRB151127A Short 09:08:49.80 1132650546.8 0.19 0.04 19.476167 -82.770611 0.000528 NaN YES 2016-01-26
E206159 Swift XRT GRB151205A Long 15:46:00.93 1133365577.93 62.8 12.3 229.288625 35.744000 0.000417 NaN YES 2016-01-26
E206220 Swift BAT GRB151205B Short 21:43:14.53 1133387011.53 1.4 0.2 41.190000 -43.461000 0.038333 NaN YES 2016-01-26
E207108 Swift XRT GRB151210A Long 03:12:56.46 1133752393.46 94.9 10.4 65.116625 -71.250556 0.000417 NaN YES 2016-01-26
EXXXXX2 Swift XRT GRB151212A Ambiguous 14:00:27 1133928044.0 NaN NaN 68.150667 -3.962528 0.000583 NaN YES 2016-01-27
E208363 Swift UVOT GRB151215A Long 03:01:28.95 1134183705.95 17.8 1.0 93.584375 35.515944 0.000128 2.59 YES 2016-01-26
E211622 Swift BAT GRB151228A Short 03:05:12.38 1135307129.38 0.27 0.01 214.017083 -17.665000 0.030000 NaN YES 2016-01-26
E211819 Swift UVOT GRB151228B Long 22:47:14.94 1135378051.94 48.0 16.0 344.424458 8.081583 0.000161 NaN YES 2016-01-26
E211923 Swift XRT GRB151229A Short 06:50:27.96 1135407044.96 1.78 0.44 329.369833 -20.732056 0.000389 NaN YES 2016-01-26
E213522 Swift UVOT GRB160104A Long 11:24:10.84 1135941867.84 16.2 2.5 76.796042 11.323750 0.000178 NaN YES 2016-01-26
