1 1126051217 1126073529 22312
2 1126114900 1126121462 6562
3 1126123320 1126123553 233
4 1126126874 1126139205 12331
5 1126139306 1126149040 9734
6 1126166064 1126244141 78077
7 1126244197 1126245396 1199
8 1126245782 1126248064 2282
9 1126248171 1126251604 3433
10 1126274361 1126276124 1763
11 1126282247 1126282496 249
12 1126293017 1126293257 240
13 1126299137 1126299197 60
14 1126299497 1126299557 60
15 1126301417 1126301717 300
16 1126301897 1126301957 60
17 1126302197 1126302257 60
18 1126302437 1126302497 60
19 1126302557 1126302617 60
20 1126304477 1126304537 60
21 1126304597 1126304777 180
22 1126304897 1126305077 180
23 1126305197 1126305377 180
24 1126305437 1126305557 120
25 1126305617 1126306937 1320
26 1126307057 1126308486 1429
27 1126309577 1126309637 60
28 1126309817 1126309877 60
29 1126327397 1126327457 60
30 1126328957 1126329017 60
31 1126330637 1126330697 60
32 1126331060 1126394301 63241
33 1126395300 1126401602 6302
34 1126401917 1126401977 60
35 1126420217 1126420277 60
36 1126427536 1126431164 3628
37 1126431612 1126432011 399
38 1126448944 1126470053 21109
39 1126480120 1126523802 43682
40 1126530953 1126533073 2120
41 1126575197 1126575257 60
42 1126604146 1126611508 7362
43 1126613131 1126615415 2284
44 1126629219 1126633397 4178
45 1126633457 1126633637 180
46 1126633697 1126633877 180
47 1126634057 1126634117 60
48 1126634237 1126634417 180
49 1126634477 1126634537 60
50 1126635077 1126635137 60
51 1126636997 1126637057 60
52 1126637117 1126637177 60
53 1126637357 1126637537 180
54 1126657697 1126657757 60
55 1126657817 1126657937 120
56 1126659317 1126659377 60
57 1126676597 1126676717 120
58 1126677357 1126682452 5095
59 1126691832 1126714447 22615
60 1126715582 1126719918 4336
61 1126720094 1126721736 1642
62 1126807637 1126807697 60
63 1126808537 1126808597 60
64 1126808777 1126808837 60
65 1126810637 1126810817 180
66 1126813757 1126813817 60
67 1126813877 1126814057 180
68 1126814177 1126814297 120
69 1126814357 1126814717 360
70 1126816037 1126816097 60
71 1126816517 1126816577 60
72 1126818437 1126818497 60
73 1126818557 1126818677 120
74 1126818737 1126818917 180
75 1126819517 1126819577 60
76 1126820117 1126820477 360
77 1126820597 1126820657 60
78 1126821917 1126829318 7401
79 1126830137 1126830197 60
80 1126830857 1126830917 60
81 1126831277 1126831757 480
82 1126832537 1126832717 180
83 1126833017 1126833077 60
84 1126833137 1126833377 240
85 1126833497 1126836077 2580
86 1126836437 1126836677 240
87 1126836906 1126837277 371
88 1126838177 1126838237 60
89 1126851618 1126854866 3248
90 1126856957 1126857017 60
91 1126871897 1126872077 180
92 1126872677 1126872737 60
93 1126873457 1126873517 60
94 1126873577 1126873697 120
95 1126873877 1126873937 60
96 1126874057 1126874177 120
97 1126874237 1126874297 60
98 1126874417 1126874477 60
99 1126874717 1126874777 60
100 1126874897 1126874957 60
101 1126875437 1126875557 120
102 1126878137 1126878257 120
103 1126879217 1126879277 60
104 1126879397 1126879457 60
105 1126879697 1126879817 120
106 1126879877 1126880117 240
107 1126881137 1126881437 300
108 1126881497 1126881677 180
109 1126881857 1126881977 120
110 1126882097 1126882217 120
111 1126882277 1126882877 600
112 1126883057 1126883597 540
113 1126883717 1126883777 60
114 1126884137 1126884257 120
115 1126885097 1126885217 120
116 1126885877 1126885937 60
117 1126886117 1126886177 60
118 1126886477 1126886537 60
119 1126886597 1126886777 180
120 1126886897 1126887137 240
121 1126887677 1126887977 300
122 1126888037 1126888397 360
123 1126888457 1126888517 60
124 1126888577 1126888637 60
125 1126893267 1126907957 14690
126 1126909037 1126910528 1491
127 1126910537 1126910657 120
128 1126914257 1126915037 780
129 1126915097 1126915157 60
130 1126927457 1126927577 120
131 1126928357 1126928477 120
132 1126932377 1126932497 120
133 1126937597 1126937657 60
134 1126944199 1126946249 2050
135 1126965677 1126965797 120
136 1126970569 1126986274 15705
137 1126991608 1126992216 608
138 1127001027 1127001172 145
139 1127074817 1127074877 60
140 1127076077 1127076257 180
141 1127076317 1127076377 60
142 1127076737 1127076917 180
143 1127079617 1127079677 60
144 1127079797 1127079917 120
145 1127082182 1127087510 5328
146 1127089697 1127089757 60
147 1127090357 1127090477 120
148 1127090537 1127090657 120
149 1127091917 1127092037 120
150 1127096837 1127096897 60
151 1127100077 1127100197 120
152 1127105477 1127105537 60
153 1127108297 1127108357 60
154 1127109797 1127109857 60
155 1127111417 1127119063 7646
156 1127119517 1127119577 60
157 1127120537 1127120597 60
158 1127120710 1127120931 221
159 1127123897 1127124017 120
160 1127124197 1127124497 300
161 1127133398 1127156371 22973
162 1127156897 1127157017 120
163 1127158037 1127158097 60
164 1127158277 1127158457 180
165 1127158757 1127158817 60
166 1127159209 1127165979 6770
167 1127166797 1127166857 60
168 1127167277 1127167337 60
169 1127169917 1127169977 60
170 1127173517 1127173577 60
171 1127173997 1127174057 60
172 1127174177 1127174237 60
173 1127175377 1127175437 60
174 1127184737 1127184797 60
175 1127189897 1127189957 60
176 1127224079 1127233630 9551
177 1127245757 1127245937 180
178 1127245997 1127246237 240
179 1127246297 1127246357 60
180 1127246537 1127246657 120
181 1127246897 1127247017 120
182 1127247077 1127247137 60
183 1127247377 1127247797 420
184 1127247857 1127247917 60
185 1127248037 1127248097 60
186 1127248817 1127248877 60
187 1127249177 1127249297 120
188 1127249477 1127249597 120
189 1127249657 1127249777 120
190 1127252057 1127252117 60
191 1127256672 1127258499 1827
192 1127265437 1127265497 60
193 1127272558 1127276015 3457
194 1127279177 1127279237 60
195 1127284277 1127284337 60
196 1127286137 1127286617 480
197 1127289977 1127290157 180
198 1127290937 1127290997 60
199 1127293757 1127293877 120
200 1127293937 1127293997 60
201 1127294057 1127294177 120
202 1127296097 1127296157 60
203 1127296817 1127296877 60
204 1127296997 1127297117 120
205 1127297357 1127297417 60
206 1127297537 1127297777 240
207 1127297957 1127298017 60
208 1127298077 1127298137 60
209 1127298197 1127298257 60
210 1127298377 1127298437 60
211 1127298977 1127299037 60
212 1127299157 1127299277 120
213 1127299577 1127299697 120
214 1127299757 1127300237 480
215 1127300297 1127300477 180
216 1127300777 1127301437 660
217 1127301497 1127301797 300
218 1127301917 1127302037 120
219 1127302097 1127302157 60
220 1127302217 1127302277 60
221 1127302337 1127303357 1020
222 1127303417 1127303657 240
223 1127303777 1127303837 60
224 1127303957 1127304197 240
225 1127304317 1127304437 120
226 1127304617 1127305517 900
227 1127305577 1127306177 600
228 1127306237 1127306717 480
229 1127307017 1127307317 300
230 1127307377 1127307977 600
231 1127308397 1127308817 420
232 1127308877 1127309057 180
233 1127309117 1127309357 240
234 1127309477 1127309597 120
235 1127309717 1127309777 60
236 1127310497 1127311097 600
237 1127311550 1127313188 1638
238 1127313437 1127314097 660
239 1127315297 1127315477 180
240 1127315597 1127315957 360
241 1127316017 1127316677 660
242 1127316737 1127317097 360
243 1127317997 1127318237 240
244 1127319617 1127319677 60
245 1127319737 1127319917 180
246 1127320517 1127320577 60
247 1127320637 1127320757 120
248 1127320817 1127320877 60
249 1127320937 1127321597 660
250 1127321657 1127321957 300
251 1127322077 1127322315 238
252 1127322317 1127322377 60
253 1127322437 1127322737 300
254 1127322977 1127323037 60
255 1127323217 1127323277 60
256 1127325077 1127325137 60
257 1127325197 1127325437 240
258 1127325557 1127325617 60
259 1127325977 1127326037 60
260 1127326277 1127326337 60
261 1127326997 1127327057 60
262 1127327357 1127327537 180
263 1127328497 1127328557 60
264 1127328977 1127329397 420
265 1127329457 1127329577 120
266 1127329755 1127329989 234
267 1127330117 1127330177 60
268 1127331677 1127331737 60
269 1127334857 1127334917 60
270 1127335037 1127335157 120
271 1127335397 1127335457 60
272 1127339417 1127339537 120
273 1127340017 1127340197 180
274 1127340317 1127340437 120
275 1127340497 1127340737 240
276 1127340797 1127340977 180
277 1127341157 1127341397 240
278 1127341457 1127341517 60
279 1127341817 1127341937 120
280 1127342537 1127343197 660
281 1127343317 1127343377 60
282 1127347097 1127347157 60
283 1127347217 1127347277 60
284 1127347637 1127348057 420
285 1127348117 1127348177 60
286 1127348537 1127348597 60
287 1127348897 1127348957 60
288 1127349257 1127349377 120
289 1127350217 1127350277 60
290 1127350337 1127350397 60
291 1127352257 1127352317 60
292 1127352437 1127352497 60
293 1127352677 1127352737 60
294 1127353457 1127353577 120
295 1127353757 1127353817 60
296 1127354057 1127354117 60
297 1127354177 1127354297 120
298 1127354357 1127354477 120
299 1127356637 1127356697 60
300 1127356757 1127356817 60
301 1127357237 1127357297 60
302 1127357357 1127357477 120
303 1127357537 1127357717 180
304 1127357777 1127358317 540
305 1127358377 1127358497 120
306 1127358557 1127358737 180
307 1127358797 1127359037 240
308 1127359097 1127359217 120
309 1127359277 1127359397 120
310 1127359457 1127359517 60
311 1127359577 1127359697 120
312 1127360057 1127360117 60
313 1127364257 1127364557 300
314 1127364677 1127364737 60
315 1127367377 1127367437 60
316 1127367737 1127368457 720
317 1127368517 1127368577 60
318 1127368877 1127368937 60
319 1127369117 1127369177 60
320 1127369237 1127369357 120
321 1127386037 1127386097 60
322 1127387357 1127387417 60
323 1127398817 1127399057 240
324 1127420057 1127420957 900
325 1127421077 1127421317 240
326 1127421497 1127421917 420
327 1127421977 1127422397 420
328 1127422457 1127422517 60
329 1127422577 1127422637 60
330 1127423117 1127423177 60
331 1127423837 1127423957 120
332 1127424197 1127424257 60
333 1127425277 1127425337 60
334 1127427137 1127427197 60
335 1127428157 1127428217 60
336 1127428457 1127428517 60
337 1127435297 1127435357 60
338 1127436377 1127436617 240
339 1127436677 1127436737 60
340 1127436797 1127436857 60
341 1127436917 1127436977 60
342 1127437037 1127437217 180
343 1127437397 1127438117 720
344 1127438177 1127438597 420
345 1127438837 1127439557 720
346 1127440517 1127440577 60
347 1127440757 1127440817 60
348 1127440997 1127441117 120
349 1127441177 1127441297 120
350 1127441357 1127442977 1620
351 1127443037 1127443157 120
352 1127443217 1127443277 60
353 1127443877 1127444177 300
354 1127444717 1127444837 120
355 1127444897 1127447357 2460
356 1127447417 1127447537 120
357 1127447597 1127447957 360
358 1127448257 1127448497 240
359 1127448917 1127448977 60
360 1127449037 1127449397 360
361 1127449457 1127449517 60
362 1127449697 1127449877 180
363 1127449937 1127450237 300
364 1127450417 1127450537 120
365 1127451317 1127451557 240
366 1127451737 1127451857 120
367 1127451917 1127452097 180
368 1127452217 1127452397 180
369 1127452457 1127452757 300
370 1127452817 1127452937 120
371 1127452997 1127453057 60
372 1127453237 1127453417 180
373 1127453477 1127453537 60
374 1127453597 1127453657 60
375 1127454197 1127454857 660
376 1127454917 1127455217 300
377 1127455277 1127455337 60
378 1127455637 1127455937 300
379 1127456117 1127456177 60
380 1127458637 1127458697 60
381 1127458997 1127459057 60
382 1127459117 1127459297 180
383 1127459477 1127459597 120
384 1127466017 1127466077 60
385 1127467097 1127467157 60
386 1127470037 1127470097 60
387 1127470757 1127470937 180
388 1127471177 1127471357 180
389 1127471597 1127471657 60
390 1127471717 1127471777 60
391 1127473037 1127474411 1374
392 1127474477 1127474537 60
393 1127476277 1127476337 60
394 1127477237 1127477297 60
395 1127479877 1127479937 60
396 1127480177 1127480357 180
397 1127480537 1127480597 60
398 1127480657 1127480965 308
399 1127481077 1127481197 120
400 1127483717 1127483777 60
401 1127484977 1127485037 60
402 1127485157 1127485277 120
403 1127485337 1127485517 180
404 1127485637 1127485817 180
405 1127485937 1127486148 211
406 1127490677 1127492934 2257
407 1127492957 1127493377 420
408 1127494277 1127494937 660
409 1127495597 1127495657 60
410 1127495837 1127496677 840
411 1127496737 1127497037 300
412 1127497637 1127497757 120
413 1127497817 1127497877 60
414 1127499077 1127501440 2363
415 1127538455 1127541867 3412
416 1127572388 1127600564 28176
417 1127603597 1127603657 60
418 1127603897 1127603957 60
419 1127604384 1127605981 1597
420 1127610497 1127610557 60
421 1127613864 1127617667 3803
422 1127634250 1127634253 3
423 1127634292 1127637545 3253
424 1127670457 1127672509 2052
425 1127672661 1127677327 4666
426 1127682916 1127686268 3352
427 1127686457 1127688757 2300
428 1127743205 1127745481 2276
429 1127745818 1127746361 543
430 1127746583 1127746914 331
431 1127747009 1127747340 331
432 1127767709 1127781900 14191
433 1127814167 1127814170 3
434 1127814209 1127833064 18855
435 1127836786 1127837557 771
436 1127837670 1127850018 12348
437 1127851237 1127931953 80716
438 1127957039 1127957240 201
439 1128021864 1128027892 6028
440 1128100947 1128116370 15423
441 1128176356 1128212167 35811
442 1128302921 1128303993 1072
443 1128304036 1128305375 1339
444 1128307790 1128318710 10920
445 1128331217 1128331337 120
446 1128331817 1128331877 60
447 1128352230 1128387596 35366
448 1128464745 1128465254 509
449 1128528012 1128536518 8506
450 1128546236 1128618578 72342
451 1128708775 1128736146 27371
452 1128740715 1128740835 120
453 1128763939 1128771811 7872
454 1128782650 1128808302 25652
455 1128810184 1128812093 1909
456 1128837829 1128858205 20376
457 1128873939 1128876203 2264
458 1128880837 1128885559 4722
459 1128887282 1128887769 487
460 1128889500 1128889783 283
461 1128889829 1128890639 810
462 1128890808 1128891178 370
463 1128922770 1128929797 7027
464 1128929882 1128931801 1919
465 1128956804 1128985185 28381
466 1129003889 1129007625 3736
467 1129011348 1129035025 23677
468 1129035082 1129035540 458
469 1129136403 1129136736 333
470 1129152798 1129155165 2367
471 1129155166 1129155621 455
472 1129222434 1129229222 6788
473 1129229437 1129229893 456
474 1129260423 1129265570 5147
475 1129294877 1129294937 60
476 1129320488 1129320491 3
477 1129320530 1129323528 2998
478 1129323555 1129323776 221
479 1129324278 1129327868 3590
480 1129383056 1129481547 98491
481 1129481572 1129482036 464
482 1129493541 1129496371 2830
483 1129496894 1129497350 456
484 1129574838 1129609234 34396
485 1129615623 1129618357 2734
486 1129627689 1129633206 5517
487 1129668879 1129669853 974
488 1129672657 1129672872 215
489 1129674055 1129674847 792
490 1129676648 1129684877 8229
491 1129704034 1129721689 17655
492 1129777931 1129786110 8179
493 1129800917 1129802405 1488
494 1129802984 1129876722 73738
495 1129882405 1129967744 85339
496 1129968078 1129973230 5152
497 1129974181 1129975046 865
498 1129992808 1130018622 25814
499 1130094664 1130099015 4351
500 1130100003 1130119352 19349
501 1130164544 1130170615 6071
502 1130170805 1130171209 404
503 1130185424 1130186155 731
504 1130186281 1130187911 1630
505 1130193625 1130196075 2450
506 1130244195 1130308697 64502
507 1130326903 1130327023 120
508 1130327143 1130327203 60
509 1130330530 1130467557 137027
510 1130482451 1130499247 16796
511 1130559273 1130572371 13098
512 1130578488 1130585400 6912
513 1130603175 1130637813 34638
514 1130637915 1130638260 345
515 1130645733 1130655728 9995
516 1130662123 1130662243 120
517 1130662303 1130662363 60
518 1130688703 1130688763 60
519 1130689046 1130700412 11366
520 1130701303 1130701423 120
521 1130701468 1130711927 10459
522 1130713092 1130722075 8983
523 1130743487 1130743857 370
524 1130753441 1130767176 13735
525 1130864300 1130875403 11103
526 1130916559 1130940876 24317
527 1130965872 1130969443 3571
528 1131016044 1131054133 38089
529 1131063917 1131063977 60
530 1131064337 1131064397 60
531 1131064860 1131069677 4817
532 1131069797 1131069857 60
533 1131069917 1131069977 60
534 1131070037 1131070337 300
535 1131070457 1131070577 120
536 1131070637 1131073037 2400
537 1131073277 1131073337 60
538 1131073397 1131073457 60
539 1131073697 1131078879 5182
540 1131081017 1131081917 900
541 1131082457 1131084257 1800
542 1131084317 1131085277 960
543 1131085337 1131085997 660
544 1131086117 1131090119 4002
545 1131090197 1131091037 840
546 1131091097 1131092057 960
547 1131092117 1131093197 1080
548 1131093257 1131093437 180
549 1131093497 1131093557 60
550 1131093617 1131093857 240
551 1131093977 1131094217 240
552 1131094757 1131095417 660
553 1131095597 1131095717 120
554 1131096077 1131096257 180
555 1131096437 1131096497 60
556 1131096617 1131097577 960
557 1131097757 1131097817 60
558 1131098717 1131098777 60
559 1131098957 1131120137 21180
560 1131121040 1131144259 23219
561 1131179573 1131182007 2434
562 1131209179 1131258515 49336
563 1131260252 1131262439 2187
564 1131272899 1131293725 20826
565 1131303220 1131303616 396
566 1131304790 1131308662 3872
567 1131314562 1131319247 4685
568 1131387134 1131394911 7777
569 1131429880 1131599265 169385
570 1131647745 1131648674 929
571 1131665295 1131704302 39007
572 1131728791 1131733827 5036
573 1131734465 1131736295 1830
574 1131777901 1131778146 245
575 1131780900 1131944359 163459
576 1131954824 1131957539 2715
577 1131963294 1131966209 2915
578 1131966688 1131970993 4305
579 1131990531 1132011844 21313
580 1132035075 1132042001 6926
581 1132044393 1132046747 2354
582 1132091252 1132100035 8783
583 1132103492 1132108612 5120
584 1132141397 1132141457 60
585 1132185292 1132197216 11924
586 1132204850 1132205186 336
587 1132206575 1132206883 308
588 1132287638 1132296891 9253
589 1132314918 1132317563 2645
590 1132339994 1132342012 2018
591 1132347679 1132353344 5665
592 1132354176 1132369634 15458
593 1132370167 1132371569 1402
594 1132414137 1132478011 63874
595 1132552743 1132565315 12572
596 1132565576 1132566301 725
597 1132591533 1132595617 4084
598 1132637943 1132646751 8808
599 1132688828 1132706624 17796
600 1132814140 1132881580 67440
601 1132912847 1132920113 7266
602 1133020110 1133053848 33738
603 1133138782 1133139009 227
604 1133139027 1133139254 227
605 1133172983 1133180512 7529
606 1133233418 1133244394 10976
607 1133245604 1133260208 14604
608 1133304399 1133326490 22091
609 1133380657 1133442577 61920
610 1133468466 1133579856 111390
611 1133626848 1133663139 36291
612 1133666010 1133674275 8265
613 1133692918 1133744441 51523
614 1133747604 1133752615 5011
615 1133754982 1133759726 4744
616 1133771156 1133771371 215
617 1133804169 1133927365 123196
618 1133979044 1133988945 9901
619 1133991119 1133993132 2013
620 1134007567 1134007710 143
621 1134010613 1134066213 55600
622 1134076547 1134099377 22830
623 1134156931 1134158147 1216
624 1134178316 1134188991 10675
625 1134195838 1134197896 2058
626 1134222585 1134226828 4243
627 1134227342 1134267924 40582
628 1134278496 1134280577 2081
629 1134291668 1134291968 300
630 1134292290 1134292579 289
631 1134302344 1134303321 977
632 1134303864 1134304685 821
633 1134348474 1134352064 3590
634 1134352637 1134352697 60
635 1134355960 1134358533 2573
636 1134416190 1134432422 16232
637 1134510252 1134518081 7829
638 1134528901 1134543145 14244
639 1134673797 1134674804 1007
640 1134675746 1134720521 44775
641 1134752897 1134752957 60
642 1134757699 1134757832 133
643 1134768230 1134771996 3766
644 1134774977 1134775097 120
645 1134775277 1134775577 300
646 1134775697 1134775997 300
647 1134776349 1134783956 7607
648 1134784757 1134784817 60
649 1134785117 1134785237 120
650 1134835624 1134862087 26463
651 1134878421 1134884408 5987
652 1134912017 1134912077 60
653 1134912137 1134912197 60
654 1134918497 1134918737 240
655 1134919157 1134919349 192
656 1134927677 1134927975 298
657 1134929686 1135021840 92154
658 1135024433 1135033244 8811
659 1135057817 1135057877 60
660 1135060997 1135061057 60
661 1135062257 1135064357 2100
662 1135064417 1135064777 360
663 1135064837 1135095426 30589
664 1135107782 1135136228 28446
665 1135151468 1135151859 391
666 1135234185 1135238726 4541
667 1135364683 1135364894 211
668 1135391789 1135411107 19318
669 1135417412 1135418759 1347
670 1135446290 1135457586 11296
671 1135496495 1135516921 20426
672 1135596250 1135617234 20984
673 1135651313 1135664857 13544
674 1135698499 1135702452 3953
675 1135702702 1135702926 224
676 1135717382 1135737171 19789
677 1135770225 1135776577 6352
678 1135778720 1135778845 125
679 1135843779 1135853150 9371
680 1135898732 1135911030 12298
681 1135924228 1135925097 869
682 1135943058 1135948563 5505
683 1135975872 1135980478 4606
684 1135991854 1136001912 10058
685 1136001927 1136004463 2536
686 1136024619 1136032651 8032
687 1136038457 1136090428 51971
688 1136091321 1136104496 13175
689 1136104713 1136106654 1941
690 1136122959 1136160454 37495
691 1136160516 1136164549 4033
692 1136176765 1136180058 3293
693 1136181304 1136192801 11497
694 1136217669 1136260354 42685
695 1136304063 1136346532 42469
696 1136347194 1136347704 510
697 1136376205 1136376640 435
698 1136399228 1136400513 1285
699 1136408589 1136408947 358
700 1136414365 1136414785 420
701 1136419250 1136419562 312
702 1136428477 1136431145 2668
703 1136432453 1136432454 1
704 1136435017 1136435077 60
705 1136435609 1136435858 249
706 1136462529 1136462984 455
707 1136466278 1136476455 10177
708 1136479801 1136482778 2977
709 1136527364 1136528553 1189
710 1136560577 1136560796 219
711 1136567045 1136581450 14405
712 1136584943 1136585203 260
713 1136596332 1136597152 820
714 1136645860 1136645993 133
