# seg	start    	stop     	duration
0	1256655666	1256657739	2073
1	1256663958	1256673192	9234
2	1256673691	1256756709	83018
3	1256766682	1256772748	6066
4	1256775368	1256798948	23580
5	1256809201	1256821151	11950
6	1256821199	1256821222	23
7	1256827739	1256835798	8059
8	1256838093	1256838252	159
9	1256838369	1256838835	466
10	1256838869	1256838894	25
11	1256874558	1256890940	16382
12	1256891012	1256903452	12440
13	1256903719	1256910776	7057
14	1256915116	1256916066	950
15	1256918388	1256920060	1672
16	1256920132	1256920380	248
17	1256920452	1256923518	3066
18	1256958170	1256959868	1698
19	1256965469	1256967668	2199
20	1256971138	1256973055	1917
21	1256975290	1256977603	2313
22	1256983637	1257001290	17653
23	1257022015	1257022063	48
24	1257023096	1257024772	1676
25	1257026995	1257071417	44422
26	1257086693	1257109230	22537
27	1257126433	1257126610	177
28	1257126704	1257169291	42587
29	1257169443	1257180792	11349
30	1257192110	1257195915	3805
31	1257223095	1257223103	8
32	1257223476	1257233958	10482
33	1257241534	1257242362	828
34	1257257516	1257257833	317
35	1257257880	1257326803	68923
36	1257360643	1257387255	26612
37	1257395960	1257412445	16485
38	1257415979	1257499836	83857
39	1257531026	1257531580	554
40	1257531662	1257544861	13199
41	1257549313	1257550139	826
42	1257560411	1257570585	10174
43	1257642805	1257685622	42817
44	1257738906	1257757910	19004
45	1257758193	1257784787	26594
46	1257816219	1257899409	83190
47	1257899421	1257985356	85935
48	1257992320	1258033994	41674
49	1258034281	1258036580	2299
50	1258052692	1258060601	7909
51	1258060623	1258076212	15589
52	1258076663	1258110327	33664
53	1258111092	1258128953	17861
54	1258141647	1258141661	14
55	1258141693	1258162837	21144
56	1258162973	1258208151	45178
57	1258245192	1258245335	143
58	1258245387	1258259482	14095
59	1258274014	1258274939	925
60	1258275379	1258277164	1785
61	1258277493	1258298411	20918
62	1258298938	1258311548	12610
63	1258311926	1258318837	6911
64	1258324856	1258333587	8731
65	1258338367	1258345818	7451
66	1258346604	1258353018	6414
67	1258353804	1258409788	55984
68	1258409860	1258418554	8694
69	1258421604	1258439383	17779
70	1258446227	1258453276	7049
71	1258456705	1258480168	23463
72	1258487006	1258592941	105935
73	1258593143	1258594298	1155
74	1258605337	1258749120	143783
75	1258749140	1258750775	1635
76	1258758110	1258773462	15352
77	1258784522	1258815801	31279
78	1258837423	1258837531	108
79	1258837564	1258846012	8448
80	1258846084	1258923614	77530
81	1258929433	1258984172	54739
82	1258992472	1259006681	14209
83	1259006811	1259056815	50004
84	1259059382	1259126052	66670
85	1259131422	1259136094	4672
86	1259139755	1259145212	5457
87	1259145729	1259183804	38075
88	1259183876	1259184008	132
89	1259309010	1259357517	48507
90	1259362537	1259364284	1747
91	1259364420	1259420626	56206
92	1259441610	1259441658	48
93	1259441695	1259459382	17687
94	1259462773	1259469031	6258
95	1259469207	1259475473	6266
96	1259475559	1259481051	5492
97	1259481147	1259481824	677
98	1259481907	1259488174	6267
99	1259488256	1259494523	6267
100	1259494604	1259500872	6268
101	1259500955	1259507220	6265
102	1259507346	1259513609	6263
103	1259513705	1259519969	6264
104	1259520915	1259526363	5448
105	1259526469	1259528433	1964
106	1259534118	1259540341	6223
107	1259540442	1259546707	6265
108	1259546810	1259553076	6266
109	1259553174	1259559440	6266
110	1259559521	1259565789	6268
111	1259565870	1259568494	2624
112	1259574343	1259605756	31413
113	1259606139	1259631316	25177
114	1259639019	1259733891	94872
115	1259733983	1259740251	6268
116	1259740336	1259746599	6263
117	1259746679	1259752947	6268
118	1259753028	1259759296	6268
119	1259759377	1259765641	6264
120	1259791400	1259792900	1500
121	1259798434	1259854875	56441
122	1259855839	1260025304	169465
123	1260025351	1260025439	88
124	1260087386	1260087621	235
125	1260088004	1260133265	45261
126	1260143085	1260221430	78345
127	1260225011	1260428434	203423
128	1260438984	1260540983	101999
129	1260756883	1260794938	38055
130	1260802424	1260840860	38436
131	1260843278	1260904975	61697
132	1260907617	1260910015	2398
133	1260919391	1260937455	18064
134	1260937721	1260962668	24947
135	1260962926	1260969189	6263
136	1260969328	1260975569	6241
137	1260975859	1260980139	4280
138	1261007858	1261026570	18712
139	1261034390	1261087984	53594
140	1261088031	1261139463	51432
141	1261142925	1261151977	9052
142	1261160474	1261164511	4037
143	1261181249	1261241600	60351
144	1261242145	1261242303	158
145	1261243755	1261250375	6620
146	1261266023	1261269052	3029
147	1261269124	1261280590	11466
148	1261289929	1261338933	49004
149	1261339028	1261342640	3612
150	1261344271	1261380198	35927
151	1261384155	1261418126	33971
152	1261422713	1261432943	10230
153	1261436872	1261443310	6438
154	1261447326	1261531617	84291
155	1261535312	1261580528	45216
156	1261583854	1261641084	57230
157	1261654016	1261663763	9747
158	1261663915	1261848138	184223
159	1261854659	1261859271	4612
160	1261859291	1262112768	253477
161	1262112774	1262188728	75954
162	1262198078	1262198857	779
163	1262200958	1262230488	29530
164	1262232415	1262234666	2251
165	1262239461	1262278048	38587
166	1262281048	1262291081	10033
167	1262293167	1262329170	36003
168	1262333141	1262335223	2082
169	1262339557	1262342302	2745
170	1262352751	1262364521	11770
171	1262440555	1262444417	3862
172	1262459639	1262461451	1812
173	1262461493	1262466428	4935
174	1262471488	1262595363	123875
175	1262607622	1262620957	13335
176	1262621078	1262637575	16497
177	1262637758	1262638867	1109
178	1262642747	1262653204	10457
179	1262653854	1262705801	51947
180	1262711712	1262713645	1933
181	1262716081	1262772751	56670
182	1262833726	1262899765	66039
183	1262908706	1262944534	35828
184	1262947448	1262972491	25043
185	1262973087	1263049216	76129
186	1263077149	1263083381	6232
187	1263084917	1263160133	75216
188	1263164625	1263181869	17244
189	1263184089	1263233351	49262
190	1263235820	1263245308	9488
191	1263245572	1263249495	3923
192	1263254173	1263287036	32863
193	1263288960	1263330551	41591
194	1263333826	1263368221	34395
195	1263588386	1263594319	5933
196	1263597982	1263599374	1392
197	1263601587	1263601875	288
198	1263612488	1263616279	3791
199	1263618943	1263634588	15645
200	1263637798	1263652909	15111
201	1263674773	1263680830	6057
202	1263680852	1263685120	4268
203	1263688328	1263697638	9310
204	1263697770	1263751884	54114
205	1263752127	1263767422	15295
206	1263777550	1263795012	17462
207	1263806320	1263850547	44227
208	1263855607	1263924944	69337
209	1263942972	1263961795	18823
210	1263966840	1263983837	16997
211	1263986569	1264000088	13519
212	1264001857	1264011283	9426
213	1264013167	1264046619	33452
214	1264046648	1264046666	18
215	1264050328	1264056807	6479
216	1264063444	1264115964	52520
217	1264119483	1264137658	18175
218	1264145647	1264186707	41060
219	1264195637	1264258532	62895
220	1264294887	1264452541	157654
221	1264468070	1264468276	206
222	1264468484	1264528206	59722
223	1264534237	1264547741	13504
224	1264547790	1264570812	23022
225	1264570898	1264575694	4796
226	1264578718	1264610469	31751
227	1264612159	1264651022	38863
228	1264653129	1264682801	29672
229	1264682991	1264769385	86394
230	1264783968	1264784647	679
231	1264784753	1264791696	6943
232	1264792615	1264805905	13290
233	1264806007	1264820328	14321
234	1264822400	1264848318	25918
235	1264885288	1264889985	4697
236	1264895816	1264924637	28821
237	1264927797	1264962692	34895
238	1264967213	1264970252	3039
239	1264977676	1265025128	47452
240	1265046699	1265046949	250
241	1265047349	1265050822	3473
242	1265061519	1265106172	44653
243	1265106244	1265133145	26901
244	1265140477	1265148772	8295
245	1265148816	1265152964	4148
246	1265153188	1265209024	55836
247	1265212711	1265265256	52545
248	1265265425	1265400128	134703
249	1265414825	1265431560	16735
250	1265435146	1265468268	33122
251	1265488975	1265502570	13595
252	1265505452	1265509298	3846
253	1265509533	1265521063	11530
254	1265525301	1265548849	23548
255	1265555332	1265563390	8058
256	1265565920	1265572779	6859
257	1265575568	1265575649	81
258	1265575691	1265607164	31473
259	1265616712	1265626074	9362
260	1265649130	1265659812	10682
261	1265661846	1265747952	86106
262	1265752605	1265756343	3738
263	1265853330	1265865245	11915
264	1265865273	1266001262	135989
265	1266006420	1266048278	41858
266	1266054049	1266064786	10737
267	1266067317	1266073316	5999
268	1266097079	1266100380	3301
269	1266100641	1266116302	15661
270	1266124319	1266188642	64323
271	1266196469	1266232566	36097
272	1266232751	1266257083	24332
273	1266270670	1266342818	72148
274	1266350404	1266460304	109900
275	1266466233	1266492220	25987
276	1266493809	1266514074	20265
277	1266519189	1266606021	86832
278	1266613720	1266677801	64081
279	1266699635	1266789671	90036
280	1266793981	1266806995	13014
281	1266821620	1266824931	3311
282	1266825099	1266828196	3097
283	1266832906	1266868240	35334
284	1266884413	1267140540	256127
285	1267159681	1267210881	51200
286	1267216697	1267282830	66133
287	1267318201	1267318694	493
288	1267320520	1267378579	58059
289	1267380081	1267397652	17571
290	1267404266	1267489102	84836
291	1267493646	1267518707	25061
292	1267519404	1267531708	12304
293	1267532228	1267553052	20824
294	1267556504	1267589092	32588
295	1267594722	1267758249	163527
296	1267766243	1267774189	7946
297	1267779304	1267812037	32733
298	1267817638	1267821274	3636
299	1267822123	1267835278	13155
300	1267840602	1267840989	387
301	1267841084	1267884092	43008
302	1267911345	1267931307	19962
303	1267931347	1267964400	33053
304	1267965721	1267989555	23834
305	1267998057	1267999077	1020
306	1267999308	1268042986	43678
307	1268045773	1268066034	20261
308	1268078136	1268081990	3854
309	1268082318	1268082494	176
310	1268082513	1268118524	36011
311	1268118596	1268125093	6497
312	1268125184	1268149397	24213
313	1268160587	1268186242	25655
314	1268187806	1268215903	28097
315	1268230068	1268238822	8754
316	1268241608	1268279299	37691
317	1268281886	1268311356	29470
318	1268312132	1268331860	19728
319	1268334202	1268367602	33400
320	1268369593	1268400028	30435
321	1268404792	1268420276	15484
322	1268429063	1268430908	1845
323	1268431044	1268488827	57783
324	1268503993	1268511207	7214
325	1268511261	1268516284	5023
326	1268516633	1268557824	41191
327	1268557920	1268558108	188
328	1268558291	1268572755	14464
329	1268578962	1268598701	19739
330	1268603444	1268621879	18435
331	1268624226	1268642751	18525
332	1268642844	1268681516	38672
333	1268685500	1268714488	28988
334	1268714540	1268760671	46131
335	1268764432	1268770943	6511
336	1268772994	1268870185	97191
337	1268872549	1268955520	82971
338	1268955745	1269012465	56720
339	1269016329	1269021641	5312
340	1269026954	1269037525	10571
341	1269046699	1269079656	32957
342	1269083691	1269083731	40
343	1269083783	1269090294	6511
344	1269091036	1269093715	2679
345	1269119289	1269140506	21217
346	1269158380	1269158680	300
347	1269158768	1269179793	21025
348	1269186184	1269210423	24239
349	1269215272	1269220522	5250
350	1269220720	1269271634	50914
351	1269271730	1269285851	14121
352	1269289707	1269296084	6377
353	1269307031	1269363615	56584
