1 1256656237 1256656245 8
2 1256656693 1256656701 8
3 1256663997 1256664005 8
4 1256667669 1256667677 8
5 1256668637 1256668645 8
6 1256672045 1256672053 8
7 1256687845 1256687853 8
8 1256694637 1256694645 8
9 1256696237 1256696245 8
10 1256701029 1256701037 8
11 1256702501 1256702509 8
12 1256705949 1256705957 8
13 1256707253 1256707261 8
14 1256708605 1256708613 8
15 1256711333 1256711341 8
16 1256714349 1256714357 8
17 1256723266 1256723291 25
18 1256726041 1256726057 16
19 1256730833 1256730841 8
20 1256732713 1256732721 8
21 1256734257 1256734265 8
22 1256737137 1256737145 8
23 1256741945 1256741961 16
24 1256747489 1256747497 8
25 1256749681 1256749689 8
26 1256753361 1256753371 10
27 1256756500 1256756527 27
28 1256758717 1256758725 8
29 1256759165 1256759191 26
30 1256767693 1256767701 8
31 1256770421 1256770429 8
32 1256779175 1256779185 10
33 1256779327 1256779337 10
34 1256795152 1256795168 16
35 1256795342 1256795358 16
36 1256798659 1256798669 10
37 1256808039 1256808047 8
38 1256815694 1256815719 25
39 1256819145 1256819170 25
40 1256830560 1256830568 8
41 1256831816 1256831824 8
42 1256837640 1256837648 8
43 1256839119 1256839144 25
44 1256841414 1256841422 8
45 1256842332 1256842333 1
46 1256842997 1256843022 25
47 1256846707 1256846715 8
48 1256848891 1256848899 8
49 1256849099 1256849125 26
50 1256855988 1256855996 8
51 1256859548 1256859556 8
52 1256859636 1256859644 8
53 1256859892 1256859900 8
54 1256860376 1256860403 27
55 1256861594 1256861619 25
56 1256865639 1256865649 10
57 1256865677 1256865687 10
58 1256872195 1256872203 8
59 1256874175 1256874176 1
60 1256875667 1256875683 16
61 1256878699 1256878707 8
62 1256880907 1256880915 8
63 1256882019 1256882075 56
64 1256882083 1256882115 32
65 1256882171 1256882187 16
66 1256883831 1256883832 1
67 1256884435 1256884443 8
68 1256884459 1256884467 8
69 1256885515 1256885523 8
70 1256885891 1256885899 8
71 1256886723 1256886779 56
72 1256886795 1256886803 8
73 1256886843 1256886851 8
74 1256887259 1256887267 8
75 1256887299 1256887307 8
76 1256887347 1256887351 4
77 1256888132 1256888142 10
78 1256888524 1256888532 8
79 1256888676 1256888684 8
80 1256888708 1256888717 9
81 1256889588 1256889597 9
82 1256890332 1256890340 8
83 1256890612 1256890621 9
84 1256891012 1256891020 8
85 1256891052 1256891060 8
86 1256891484 1256891508 24
87 1256891524 1256891532 8
88 1256891556 1256891558 2
89 1256891609 1256891634 25
90 1256893624 1256893632 8
91 1256893720 1256893746 26
92 1256902009 1256902019 10
93 1256902224 1256902234 10
94 1256902315 1256902325 10
95 1256902407 1256902417 10
96 1256902451 1256902461 10
97 1256902494 1256902504 10
98 1256902532 1256902542 10
99 1256902579 1256902589 10
100 1256902637 1256902647 10
101 1256902790 1256902800 10
102 1256904147 1256904155 8
103 1256904803 1256904811 8
104 1256905571 1256905587 16
105 1256905618 1256905619 1
106 1256905907 1256905915 8
107 1256906419 1256906427 8
108 1256906491 1256906499 8
109 1256908315 1256908323 8
110 1256908807 1256908832 25
111 1256915534 1256915542 8
112 1256916846 1256916854 8
113 1256917998 1256918006 8
114 1256919038 1256919046 8
115 1256919862 1256919870 8
116 1256920694 1256920702 8
117 1256921894 1256921902 8
118 1256921990 1256921998 8
119 1256922246 1256922254 8
120 1256922534 1256922550 16
121 1256923038 1256923046 8
122 1256923094 1256923102 8
123 1256923398 1256923406 8
124 1256925646 1256925654 8
125 1256926038 1256926046 8
126 1256926438 1256926454 16
127 1256928862 1256928870 8
128 1256929902 1256929910 8
129 1256930404 1256930408 4
130 1256930448 1256930452 4
131 1256930468 1256930472 4
132 1256931750 1256931758 8
133 1256932086 1256932094 8
134 1256932526 1256932534 8
135 1256933534 1256933542 8
136 1256933998 1256934014 16
137 1256938006 1256938014 8
138 1256938038 1256938054 16
139 1256939822 1256939830 8
140 1256940334 1256940342 8
141 1256940718 1256940726 8
142 1256941342 1256941350 8
143 1256941446 1256941454 8
144 1256941926 1256941934 8
145 1256942094 1256942102 8
146 1256943453 1256943486 33
147 1256953958 1256953966 8
148 1256955926 1256955934 8
149 1256957030 1256957038 8
150 1256959030 1256959046 16
151 1256960358 1256960366 8
152 1256962054 1256962062 8
153 1256962078 1256962094 16
154 1256963878 1256963886 8
155 1256965342 1256965358 16
156 1256965926 1256965942 16
157 1256966046 1256966054 8
158 1256966438 1256966446 8
159 1256966878 1256966886 8
160 1256968198 1256968206 8
161 1256969198 1256969206 8
162 1256969374 1256969382 8
163 1256969766 1256969774 8
164 1256973024 1256973049 25
165 1256990762 1256990787 25
166 1257025730 1257025738 8
167 1257025746 1257025762 16
168 1257027570 1257027595 25
169 1257043929 1257043954 25
170 1257060037 1257060062 25
171 1257076235 1257076260 25
172 1257082678 1257082703 25
173 1257094256 1257094281 25
174 1257099055 1257099080 25
175 1257124211 1257124219 8
176 1257153763 1257153788 25
177 1257168058 1257168083 25
178 1257171330 1257171338 8
179 1257189648 1257189668 20
180 1257193410 1257193418 8
181 1257202737 1257202762 25
182 1257213670 1257213678 8
183 1257285854 1257285862 8
184 1257286374 1257286382 8
185 1257286588 1257286590 2
186 1257290502 1257290510 8
187 1257291926 1257291934 8
188 1257293598 1257293606 8
189 1257294558 1257294586 28
190 1257297235 1257297243 8
191 1257303163 1257303171 8
192 1257304059 1257304067 8
193 1257304571 1257304579 8
194 1257305803 1257305819 16
195 1257308107 1257308115 8
196 1257308347 1257308355 8
197 1257309627 1257309635 8
198 1257310955 1257310963 8
199 1257313347 1257313355 8
200 1257315507 1257315533 26
201 1257317518 1257317526 8
202 1257319238 1257319246 8
203 1257321590 1257321598 8
204 1257322190 1257322206 16
205 1257325222 1257325230 8
206 1257325358 1257325374 16
207 1257325382 1257325408 26
208 1257335751 1257335759 8
209 1257341735 1257341743 8
210 1257347415 1257347423 8
211 1257348082 1257348083 1
212 1257348383 1257348391 8
213 1257353559 1257353567 8
214 1257356023 1257356031 8
215 1257359135 1257359143 8
216 1257360527 1257360535 8
217 1257361607 1257361615 8
218 1257361775 1257361783 8
219 1257364943 1257364951 8
220 1257367967 1257367975 8
221 1257370151 1257370159 8
222 1257370775 1257370783 8
223 1257372776 1257372792 16
224 1257373183 1257373191 8
225 1257374095 1257374103 8
226 1257374887 1257374895 8
227 1257378103 1257378111 8
228 1257379743 1257379751 8
229 1257379983 1257379991 8
230 1257381983 1257381991 8
231 1257384391 1257384399 8
232 1257385927 1257385935 8
233 1257386879 1257386887 8
234 1257388623 1257388631 8
235 1257390175 1257390183 8
236 1257391087 1257391103 16
237 1257391271 1257391279 8
238 1257392351 1257392359 8
239 1257392367 1257392375 8
240 1257393876 1257393880 4
241 1257393884 1257393888 4
242 1257393896 1257393900 4
243 1257393927 1257393935 8
244 1257394191 1257394199 8
245 1257394207 1257394215 8
246 1257394671 1257394687 16
247 1257394903 1257394911 8
248 1257397607 1257397615 8
249 1257399359 1257399367 8
250 1257400311 1257400319 8
251 1257400599 1257400607 8
252 1257401199 1257401207 8
253 1257401335 1257401343 8
254 1257402119 1257402127 8
255 1257402167 1257402183 16
256 1257402407 1257402415 8
257 1257402599 1257402607 8
258 1257403575 1257403583 8
259 1257403903 1257403919 16
260 1257404167 1257404175 8
261 1257404711 1257404727 16
262 1257405231 1257405239 8
263 1257405327 1257405335 8
264 1257405503 1257405519 16
265 1257406223 1257406231 8
266 1257406591 1257406599 8
267 1257407687 1257407695 8
268 1257408639 1257408655 16
269 1257412247 1257412250 3
270 1257412771 1257412796 25
271 1257416043 1257416051 8
272 1257421883 1257421891 8
273 1257430955 1257430963 8
274 1257433163 1257433171 8
275 1257435091 1257435099 8
276 1257449195 1257449203 8
277 1257455323 1257455331 8
278 1257455403 1257455411 8
279 1257456675 1257456683 8
280 1257456707 1257456715 8
281 1257458427 1257458435 8
282 1257464618 1257464643 25
283 1257465976 1257466001 25
284 1257472821 1257472829 8
285 1257473053 1257473061 8
286 1257473253 1257473261 8
287 1257476149 1257476157 8
288 1257477955 1257477956 1
289 1257479173 1257479181 8
290 1257483205 1257483213 8
291 1257484109 1257484117 8
292 1257489269 1257489277 8
293 1257490621 1257490629 8
294 1257494085 1257494093 8
295 1257495301 1257495317 16
296 1257496205 1257496213 8
297 1257497357 1257497365 8
298 1257497437 1257497445 8
299 1257498493 1257498501 8
300 1257498837 1257498845 8
301 1257502013 1257502021 8
302 1257504933 1257504973 40
303 1257510222 1257510230 8
304 1257531534 1257531560 26
305 1257552403 1257552411 8
306 1257553651 1257553676 25
307 1257569741 1257569751 10
308 1257578715 1257578740 25
309 1257608102 1257608110 8
310 1257608302 1257608310 8
311 1257608759 1257608784 25
312 1257613201 1257613226 25
313 1257616886 1257616911 25
314 1257619076 1257619084 8
315 1257620340 1257620348 8
316 1257621248 1257621252 4
317 1257621400 1257621416 16
318 1257621668 1257621676 8
319 1257622345 1257622370 25
320 1257626431 1257626456 25
321 1257629842 1257629870 28
322 1257632592 1257632600 8
323 1257634743 1257634768 25
324 1257639308 1257639340 32
325 1257642502 1257642503 1
326 1257642540 1257642565 25
327 1257646874 1257646876 2
328 1257647021 1257647022 1
329 1257652606 1257652631 25
330 1257658757 1257658773 16
331 1257660461 1257660477 16
332 1257662277 1257662305 28
333 1257665468 1257665476 8
334 1257666732 1257666740 8
335 1257670380 1257670388 8
336 1257670556 1257670560 4
337 1257670616 1257670620 4
338 1257670648 1257670652 4
339 1257670812 1257670828 16
340 1257671036 1257671040 4
341 1257671128 1257671132 4
342 1257671576 1257671580 4
343 1257671608 1257671612 4
344 1257671728 1257671732 4
345 1257671848 1257671852 4
346 1257671964 1257671968 4
347 1257671996 1257672000 4
348 1257672176 1257672180 4
349 1257672328 1257672332 4
350 1257672444 1257672448 4
351 1257672476 1257672480 4
352 1257672536 1257672540 4
353 1257672543 1257672568 25
354 1257678503 1257678528 25
355 1257681577 1257681585 8
356 1257681657 1257681665 8
357 1257682057 1257682065 8
358 1257682641 1257682649 8
359 1257682817 1257682825 8
360 1257682873 1257682881 8
361 1257683585 1257683593 8
362 1257683697 1257683705 8
363 1257683817 1257683825 8
364 1257683873 1257683881 8
365 1257684369 1257684377 8
366 1257684385 1257684393 8
367 1257684577 1257684585 8
368 1257685609 1257685617 8
369 1257685633 1257685641 8
370 1257686137 1257686145 8
371 1257686153 1257686161 8
372 1257686577 1257686585 8
373 1257686609 1257686617 8
374 1257687417 1257687425 8
375 1257687769 1257687785 16
376 1257688297 1257688305 8
377 1257688649 1257688657 8
378 1257688665 1257688673 8
379 1257688737 1257688745 8
380 1257689209 1257689225 16
381 1257689425 1257689433 8
382 1257689441 1257689449 8
383 1257689569 1257689577 8
384 1257689730 1257689731 1
385 1257690249 1257690257 8
386 1257690593 1257690601 8
387 1257690609 1257690617 8
388 1257690841 1257690849 8
389 1257691868 1257691893 25
390 1257701739 1257701764 25
391 1257707066 1257707091 25
392 1257731934 1257731961 27
393 1257744636 1257744637 1
394 1257761750 1257761760 10
395 1257771266 1257771292 26
396 1257777913 1257777923 10
397 1257784629 1257784654 25
398 1257840917 1257840942 25
399 1257857211 1257857212 1
400 1257865443 1257865468 25
401 1257884658 1257884659 1
402 1257892806 1257892807 1
403 1257905501 1257905510 9
404 1257910518 1257910528 10
405 1257921700 1257921701 1
406 1257941746 1257941748 2
407 1257967063 1257967064 1
408 1257971927 1257971952 25
409 1257982035 1257982060 25
410 1257983825 1257983850 25
411 1257986552 1257986577 25
412 1257990145 1257990170 25
413 1257996926 1257996954 28
414 1258001159 1258001160 1
415 1258002486 1258002512 26
416 1258005160 1258005185 25
417 1258021847 1258021857 10
418 1258037588 1258037589 1
419 1258050907 1258050917 10
420 1258057711 1258057712 1
421 1258058861 1258058862 1
422 1258065080 1258065081 1
423 1258078690 1258078715 25
424 1258080390 1258080415 25
425 1258119495 1258119615 120
426 1258125096 1258125216 120
427 1258127486 1258127494 8
428 1258141801 1258141802 1
429 1258169624 1258169625 1
430 1258182798 1258182823 25
431 1258216152 1258216177 25
432 1258226505 1258226530 25
433 1258229529 1258229649 120
434 1258253425 1258253545 120
435 1258255667 1258255675 8
436 1258261961 1258261986 25
437 1258265211 1258265236 25
438 1258270538 1258270539 1
439 1258272049 1258272074 25
440 1258283912 1258283950 38
441 1258295809 1258295903 94
442 1258304064 1258304089 25
443 1258307950 1258307975 25
444 1258313332 1258313357 25
445 1258315707 1258315827 120
446 1258331881 1258331891 10
447 1258331985 1258332010 25
448 1258335101 1258335109 8
449 1258335746 1258335760 14
450 1258344836 1258344956 120
451 1258353515 1258353540 25
452 1258355628 1258355636 8
453 1258362754 1258362779 25
454 1258369534 1258369559 25
455 1258390947 1258390955 8
456 1258407815 1258407935 120
457 1258477182 1258477207 25
458 1258524695 1258524815 120
459 1258536437 1258536447 10
460 1258537859 1258537979 120
461 1258546469 1258546479 10
462 1258559216 1258559336 120
463 1258587190 1258587200 10
464 1258593501 1258593503 2
465 1258593544 1258593560 16
466 1258593825 1258593835 10
467 1258594706 1258594731 25
468 1258599095 1258599096 1
469 1258599237 1258599262 25
470 1258611300 1258611327 27
471 1258616400 1258625559 9159
472 1258625767 1258625967 200
473 1258626690 1258626717 27
474 1258628830 1258628855 25
475 1258645622 1258645742 120
476 1258659376 1258659496 120
477 1258673290 1258673410 120
478 1258691669 1258691789 120
479 1258704961 1258704969 8
480 1258709957 1258709982 25
481 1258719648 1258719673 25
482 1258721710 1258721735 25
483 1258728091 1258728107 16
484 1258730723 1258730741 18
485 1258733226 1258733346 120
486 1258740851 1258740971 120
487 1258745330 1258745355 25
488 1258772176 1258772201 25
489 1258826687 1258826716 29
490 1258856286 1258856312 26
491 1258875065 1258875073 8
492 1258875078 1258875088 10
493 1258875090 1258875115 25
494 1258882406 1258882526 120
495 1258892776 1258892786 10
496 1258897175 1258897213 38
497 1258898623 1258898648 25
498 1258909572 1258909597 25
499 1258920562 1258920588 26
500 1258931939 1258931964 25
501 1258933534 1258933535 1
502 1258938170 1258938290 120
503 1258939196 1258939221 25
504 1258947175 1258947200 25
505 1258950716 1258950741 25
506 1258955625 1258955650 25
507 1258960599 1258960624 25
508 1258965355 1258965380 25
509 1258966880 1258966905 25
510 1258968592 1258968617 25
511 1258980605 1258980629 24
512 1258982537 1258982562 25
513 1259002300 1259002301 1
514 1259006392 1259006417 25
515 1259013636 1259013652 16
516 1259016610 1259016611 1
517 1259024889 1259024890 1
518 1259053509 1259053510 1
519 1259053655 1259053680 25
520 1259055061 1259055086 25
521 1259058700 1259058701 1
522 1259058816 1259058841 25
523 1259061847 1259061872 25
524 1259064016 1259064041 25
525 1259074765 1259074766 1
526 1259077159 1259077183 24
527 1259077589 1259077590 1
528 1259079971 1259079972 1
529 1259080752 1259080753 1
530 1259102964 1259102980 16
531 1259115304 1259115314 10
532 1259127600 1259127616 16
533 1259136926 1259136951 25
534 1259159886 1259159887 1
535 1259161380 1259161396 16
536 1259163985 1259163986 1
537 1259170704 1259170720 16
538 1259178796 1259178812 16
539 1259179100 1259179116 16
540 1259183843 1259183844 1
541 1259200000 1259200016 16
542 1259200036 1259200052 16
543 1259211059 1259211060 1
544 1259218428 1259218453 25
545 1259230387 1259230388 1
546 1259234300 1259234301 1
547 1259235389 1259235390 1
548 1259243780 1259243796 16
549 1259247074 1259247075 1
550 1259254330 1259254331 1
551 1259270044 1259270069 25
552 1259273329 1259273330 1
553 1259284692 1259284708 16
554 1259294387 1259294388 1
555 1259295379 1259295381 2
556 1259300923 1259300949 26
557 1259305195 1259305197 2
558 1259305398 1259305399 1
559 1259305412 1259305413 1
560 1259309035 1259309060 25
561 1259315736 1259315761 25
562 1259323568 1259323593 25
563 1259367305 1259367306 1
564 1259385788 1259385804 16
565 1259392203 1259392228 25
566 1259416536 1259416537 1
567 1259421664 1259421665 1
568 1259424188 1259424204 16
569 1259429497 1259429522 25
570 1259435486 1259435487 1
571 1259436944 1259436969 25
572 1259439976 1259439977 1
573 1259440590 1259440591 1
574 1259441460 1259441461 1
575 1259442424 1259442425 1
576 1259442538 1259442539 1
577 1259444599 1259444600 1
578 1259446188 1259446189 1
579 1259449378 1259449379 1
580 1259453166 1259453167 1
581 1259456519 1259456544 25
582 1259460897 1259460898 1
583 1259463577 1259463603 26
584 1259467695 1259467696 1
585 1259474097 1259474098 1
586 1259477221 1259477229 8
587 1259483049 1259483050 1
588 1259483810 1259483811 1
589 1259484255 1259484256 1
590 1259485497 1259485498 1
591 1259486613 1259486614 1
592 1259489933 1259489941 8
593 1259489962 1259489987 25
594 1259492735 1259492760 25
595 1259495239 1259495264 25
596 1259496410 1259496435 25
597 1259498308 1259498333 25
598 1259505686 1259505715 29
599 1259523048 1259523073 25
600 1259566194 1259566219 25
601 1259570942 1259570967 25
602 1259577683 1259577708 25
603 1259615546 1259615554 8
604 1259649722 1259649723 1
605 1259668458 1259668610 152
606 1259677650 1259677666 16
607 1259677674 1259677690 16
608 1259677698 1259677714 16
609 1259677730 1259677738 8
610 1259687410 1259687447 37
611 1259695868 1259695893 25
612 1259736147 1259736172 25
613 1259824098 1259824108 10
614 1259837510 1259837535 25
615 1259858604 1259858614 10
616 1259874977 1259874987 10
617 1259875176 1259875186 10
618 1259894419 1259894449 30
619 1259897849 1259897874 25
620 1259950688 1259950713 25
621 1259962134 1259962142 8
622 1259973309 1259973319 10
623 1259986294 1259986302 8
624 1259997022 1259997047 25
625 1260036397 1260036422 25
626 1260066314 1260066324 10
627 1260067961 1260067971 10
628 1260081788 1260081813 25
629 1260085937 1260085972 35
630 1260087893 1260087903 10
631 1260106257 1260106282 25
632 1260107917 1260107942 25
633 1260109499 1260109524 25
634 1260111965 1260111990 25
635 1260113266 1260113291 25
636 1260115053 1260115078 25
637 1260117325 1260117350 25
638 1260119463 1260119488 25
639 1260120840 1260120865 25
640 1260122253 1260122278 25
641 1260124101 1260124126 25
642 1260126108 1260126133 25
643 1260147710 1260147720 10
644 1260162334 1260162359 25
645 1260178305 1260178330 25
646 1260183379 1260183404 25
647 1260191208 1260191233 25
648 1260194912 1260194937 25
649 1260199827 1260199835 8
650 1260219642 1260219652 10
651 1260238605 1260238615 10
652 1260252730 1260252740 10
653 1260268520 1260268530 10
654 1260272193 1260272203 10
655 1260273937 1260273962 25
656 1260275644 1260275669 25
657 1260277372 1260277374 2
658 1260281887 1260281912 25
659 1260302456 1260302466 10
660 1260315866 1260315876 10
661 1260332304 1260332314 10
662 1260355124 1260355134 10
663 1260377812 1260377828 16
664 1260377884 1260377900 16
665 1260377916 1260377924 8
666 1260378202 1260378212 10
667 1260405494 1260405504 10
668 1260406572 1260406582 10
669 1260427577 1260427602 25
670 1260479156 1260479172 16
671 1260481004 1260481020 16
672 1260523793 1260523818 25
673 1260530809 1260530834 25
674 1260549389 1260549399 10
675 1260602978 1260603003 25
676 1260605800 1260605825 25
677 1260639751 1260639761 10
678 1260687405 1260687415 10
679 1260711291 1260711316 25
680 1260712589 1260712614 25
681 1260721404 1260721429 25
682 1260723394 1260723419 25
683 1260726382 1260726407 25
684 1260728711 1260728736 25
685 1260732320 1260732345 25
686 1260735731 1260735761 30
687 1260784072 1260784097 25
688 1260790142 1260790152 10
689 1260790359 1260790391 32
690 1260794521 1260794556 35
691 1260815999 1260816009 10
692 1260818544 1260818554 10
693 1260819269 1260819294 25
694 1260826196 1260826206 10
695 1260832048 1260832058 10
696 1260832289 1260832299 10
697 1260838788 1260838813 25
698 1260840835 1260840860 25
699 1260886897 1260886907 10
700 1260897637 1260897638 1
701 1260901337 1260901362 25
702 1260902555 1260902580 25
703 1260907226 1260907251 25
704 1260931317 1260931327 10
705 1260934864 1260934874 10
706 1260954451 1260954476 25
707 1260956948 1260956973 25
708 1260964480 1260964505 25
709 1260967341 1260967366 25
710 1260971779 1260971804 25
711 1260973006 1260973031 25
712 1260974720 1260974745 25
713 1260981698 1260981708 10
714 1261005383 1261005393 10
715 1261008902 1261008927 25
716 1261015541 1261015566 25
717 1261019935 1261019960 25
718 1261022670 1261022695 25
719 1261025753 1261025778 25
720 1261059092 1261059117 25
721 1261074693 1261074703 10
722 1261087713 1261087738 25
723 1261115082 1261115092 10
724 1261120119 1261120144 25
725 1261135192 1261135217 25
726 1261159833 1261159858 25
727 1261208343 1261208368 25
728 1261283188 1261283213 25
729 1261320315 1261320325 10
730 1261328371 1261328396 25
731 1261333921 1261333946 25
732 1261357071 1261357081 10
733 1261443619 1261443635 16
734 1261463573 1261463598 25
735 1261501126 1261501136 10
736 1261551644 1261551654 10
737 1261638192 1261638202 10
738 1261703571 1261703597 26
739 1261732331 1261732356 25
740 1261800947 1261800955 8
741 1261811736 1261811761 25
742 1261821570 1261821595 25
743 1261827337 1261827347 10
744 1261830570 1261830580 10
745 1261899926 1261899928 2
746 1261934560 1261934585 25
747 1261940482 1261940507 25
748 1262093329 1262093339 10
749 1262118338 1262118348 10
750 1262128835 1262128845 10
751 1262197881 1262197891 10
752 1262294858 1262294868 10
753 1262319650 1262319652 2
754 1262405998 1262406008 10
755 1262418823 1262418848 25
756 1262431359 1262431384 25
757 1262433008 1262433033 25
758 1262434591 1262434616 25
759 1262436164 1262436189 25
760 1262439568 1262439593 25
761 1262441808 1262441833 25
762 1262443357 1262443382 25
763 1262445375 1262445400 25
764 1262446937 1262446962 25
765 1262448468 1262448493 25
766 1262451297 1262451322 25
767 1262452801 1262452826 25
768 1262455030 1262455055 25
769 1262458289 1262458314 25
770 1262466366 1262466391 25
771 1262467927 1262467952 25
772 1262469401 1262469426 25
773 1262496383 1262496408 25
774 1262497952 1262497977 25
775 1262503854 1262503879 25
776 1262506079 1262506104 25
777 1262507736 1262507761 25
778 1262510697 1262510722 25
779 1262514143 1262514168 25
780 1262519521 1262519546 25
781 1262522832 1262522857 25
782 1262524095 1262524120 25
783 1262526209 1262526234 25
784 1262527605 1262527630 25
785 1262528968 1262528993 25
786 1262530482 1262530507 25
787 1262545689 1262545714 25
788 1262578918 1262578943 25
789 1262596654 1262596656 2
790 1262596837 1262596862 25
791 1262602161 1262602186 25
792 1262924699 1262924709 10
793 1262960480 1262960490 10
794 1262960847 1262960857 10
795 1263020945 1263020953 8
796 1263022163 1263022188 25
797 1263084384 1263084409 25
798 1263096766 1263096774 8
799 1263098782 1263098790 8
800 1263108558 1263108566 8
801 1263110169 1263110194 25
802 1263121112 1263121137 25
803 1263145110 1263145135 25
804 1263149800 1263149825 25
805 1263248248 1263248256 8
806 1263254480 1263254488 8
807 1263258648 1263258656 8
808 1263267008 1263267016 8
809 1263268960 1263268968 8
810 1263273072 1263273088 16
811 1263273432 1263273440 8
812 1263282838 1263282863 25
813 1263286570 1263286595 25
814 1263288055 1263288080 25
815 1263314747 1263314772 25
816 1263342917 1263342942 25
817 1263455311 1263455336 25
818 1263469703 1263469711 8
819 1263470943 1263470951 8
820 1263471927 1263471935 8
821 1263472695 1263472703 8
822 1263473391 1263473407 16
823 1263476583 1263476599 16
824 1263477453 1263477463 10
825 1263477550 1263477552 2
826 1263489178 1263489203 25
827 1263503276 1263503301 25
828 1263505226 1263505251 25
829 1263512540 1263512565 25
830 1263516053 1263516055 2
831 1263546068 1263546093 25
832 1263561973 1263561998 25
833 1263567548 1263567550 2
834 1263568383 1263568385 2
835 1263578173 1263578198 25
836 1263626146 1263626171 25
837 1263649796 1263649821 25
838 1263653135 1263653160 25
839 1263661664 1263661689 25
840 1263664735 1263664760 25
841 1263670081 1263670089 8
842 1263674900 1263674925 25
843 1263713183 1263713208 25
844 1263725495 1263725520 25
845 1263727317 1263727342 25
846 1263748633 1263748658 25
847 1263752749 1263752774 25
848 1263774539 1263774549 10
849 1263776414 1263776424 10
850 1263783278 1263783303 25
851 1263790143 1263790168 25
852 1263836936 1263836946 10
853 1263837790 1263837796 6
854 1263841752 1263841762 10
855 1263897854 1263897862 8
856 1263924034 1263924059 25
857 1263984665 1263984689 24
858 1263984921 1263984929 8
859 1263988337 1263988345 8
860 1263997041 1263997065 24
861 1264000326 1264000351 25
862 1264003877 1264003902 25
863 1264005317 1264005342 25
864 1264011857 1264011865 8
865 1264015024 1264015040 16
866 1264018142 1264018150 8
867 1264021177 1264021185 8
868 1264043311 1264043362 51
869 1264175889 1264175914 25
870 1264212709 1264212739 30
871 1264231350 1264231375 25
872 1264266810 1264266835 25
873 1264347971 1264347996 25
874 1264352444 1264352469 25
875 1264411226 1264411251 25
876 1264415134 1264415159 25
877 1264419112 1264419137 25
878 1264441737 1264441766 29
879 1264443746 1264443771 25
880 1264447996 1264448012 16
881 1264554499 1264554643 144
882 1264628955 1264628963 8
883 1264701000 1264701055 55
884 1264825032 1264825044 12
885 1264825428 1264825453 25
886 1264834120 1264834140 20
887 1264835195 1264835220 25
888 1264873760 1264873785 25
889 1264905809 1264905819 10
890 1264914968 1264914978 10
891 1264920991 1264921001 10
892 1264928541 1264928551 10
893 1264935448 1264935473 25
894 1264944511 1264944536 25
895 1264958632 1264958657 25
896 1264966038 1264966063 25
897 1265007400 1265007425 25
898 1265031534 1265031559 25
899 1265034454 1265034479 25
900 1265046759 1265046784 25
901 1265316329 1265316331 2
902 1265379746 1265379771 25
903 1265398688 1265398713 25
904 1265413568 1265413593 25
905 1265421880 1265421905 25
906 1265425801 1265425826 25
907 1265431253 1265431261 8
908 1265441263 1265441288 25
909 1265473261 1265473262 1
910 1265474005 1265474030 25
911 1265494975 1265495000 25
912 1265536091 1265536101 10
913 1265560531 1265560556 25
914 1265562576 1265562601 25
915 1265581400 1265581425 25
916 1265585775 1265585800 25
917 1265609462 1265609470 8
918 1265618846 1265618854 8
919 1265625412 1265625437 25
920 1265651164 1265651174 10
921 1265651638 1265651648 10
922 1265652295 1265652305 10
923 1265673761 1265673771 10
924 1265676185 1265676210 25
925 1265678301 1265678326 25
926 1265679986 1265680011 25
927 1265682058 1265682083 25
928 1265693626 1265693634 8
929 1265709653 1265709663 10
930 1265746077 1265746087 10
931 1265746271 1265746296 25
932 1265852330 1265852338 8
933 1265857186 1265857194 8
934 1265869617 1265869627 10
935 1265896450 1265896460 10
936 1265964352 1265964377 25
937 1265979398 1265979408 10
938 1265980152 1265980177 25
939 1265986893 1265986918 25
940 1266032612 1266032620 8
941 1266037805 1266037830 25
942 1266044816 1266044841 25
943 1266069415 1266069440 25
944 1266076098 1266076123 25
945 1266148246 1266148254 8
946 1266168459 1266168484 25
947 1266172727 1266172752 25
948 1266174821 1266174846 25
949 1266209000 1266209052 52
950 1266217512 1266217537 25
951 1266221678 1266221703 25
952 1266228810 1266228835 25
953 1266236112 1266236137 25
954 1266239179 1266239204 25
955 1266257452 1266257477 25
956 1266267045 1266267070 25
957 1266269576 1266269601 25
958 1266280498 1266280523 25
959 1266299169 1266299194 25
960 1266303319 1266303344 25
961 1266304400 1266304425 25
962 1266306033 1266306058 25
963 1266307661 1266307686 25
964 1266309556 1266309581 25
965 1266334000 1266334069 69
966 1266335763 1266335788 25
967 1266363320 1266363345 25
968 1266379934 1266379959 25
969 1266382775 1266382800 25
970 1266421904 1266421929 25
971 1266423692 1266423717 25
972 1266424988 1266425013 25
973 1266444244 1266444269 25
974 1266452795 1266452797 2
975 1266452883 1266452908 25
976 1266455998 1266456023 25
977 1266463037 1266463062 25
978 1266466742 1266466767 25
979 1266479410 1266479435 25
980 1266495335 1266495337 2
981 1266509671 1266509696 25
982 1266536822 1266536847 25
983 1266548193 1266548218 25
984 1266565525 1266565550 25
985 1266603868 1266603888 20
986 1266633817 1266633827 10
987 1266649422 1266649447 25
988 1266689446 1266689471 25
989 1266691346 1266691371 25
990 1266711215 1266711240 25
991 1266786233 1266786258 25
992 1266811104 1266811114 10
993 1266834700 1266834725 25
994 1266836432 1266836457 25
995 1266838599 1266838624 25
996 1266840125 1266840150 25
997 1266841763 1266841773 10
998 1266844219 1266844244 25
999 1266861421 1266861446 25
1000 1266867296 1266867316 20
1001 1266873768 1266873793 25
1002 1266881379 1266881389 10
1003 1266886076 1266886101 25
1004 1266887738 1266887763 25
1005 1266898426 1266898436 10
1006 1266913393 1266913418 25
1007 1266915162 1266915187 25
1008 1266919088 1266919113 25
1009 1266924899 1266924924 25
1010 1266935605 1266935630 25
1011 1267039748 1267039773 25
1012 1267099811 1267099821 10
1013 1267126533 1267126558 25
1014 1267128521 1267128546 25
1015 1267176123 1267176133 10
1016 1267177534 1267177559 25
1017 1267180552 1267180562 10
1018 1267193646 1267193671 25
1019 1267196972 1267196997 25
1020 1267199594 1267199619 25
1021 1267204559 1267204569 10
1022 1267205123 1267205133 10
1023 1267205717 1267205727 10
1024 1267206325 1267206335 10
1025 1267224185 1267224210 25
1026 1267228435 1267228460 25
1027 1267242272 1267242297 25
1028 1267255513 1267255538 25
1029 1267268822 1267268824 2
1030 1267269174 1267269176 2
1031 1267270658 1267270668 10
1032 1267276956 1267276981 25
1033 1267278654 1267278679 25
1034 1267286207 1267286217 10
1035 1267286724 1267286734 10
1036 1267287531 1267287556 25
1037 1267320430 1267320455 25
1038 1267344823 1267344848 25
1039 1267374824 1267374849 25
1040 1267379672 1267379697 25
1041 1267383874 1267383899 25
1042 1267437638 1267437663 25
1043 1267444453 1267444478 25
1044 1267447118 1267447143 25
1045 1267457655 1267457680 25
1046 1267458951 1267458976 25
1047 1267477492 1267477517 25
1048 1267486703 1267486728 25
1049 1267520766 1267520791 25
1050 1267529003 1267529013 10
1051 1267530359 1267530384 25
1052 1267536393 1267536403 10
1053 1267537159 1267537169 10
1054 1267547264 1267547289 25
1055 1267590289 1267590299 10
1056 1267605040 1267605065 25
1057 1267627569 1267627594 25
1058 1267629082 1267629107 25
1059 1267650970 1267650980 10
1060 1267778558 1267778583 25
1061 1267787820 1267787845 25
1062 1267806678 1267806703 25
1063 1267816844 1267816860 16
1064 1267841564 1267841574 10
1065 1267859373 1267859398 25
1066 1267879215 1267879223 8
1067 1267881468 1267881495 27
1068 1267883277 1267883302 25
1069 1267888018 1267888043 25
1070 1267889873 1267889898 25
1071 1267891333 1267891358 25
1072 1267892555 1267892580 25
1073 1267903728 1267903736 8
1074 1267905360 1267905512 152
1075 1267937769 1267937794 25
1076 1267979223 1267979248 25
1077 1267983671 1267983696 25
1078 1267989781 1267989806 25
1079 1268020659 1268020667 8
1080 1268034701 1268034726 25
1081 1268038930 1268038955 25
1082 1268040617 1268040642 25
1083 1268054023 1268054048 25
1084 1268055721 1268055730 9
1085 1268059812 1268059837 25
1086 1268184105 1268184113 8
1087 1268219225 1268219233 8
1088 1268220873 1268220881 8
1089 1268220889 1268220905 16
1090 1268220913 1268220920 7
1091 1268221001 1268221010 9
1092 1268221030 1268221055 25
1093 1268280784 1268280808 24
1094 1268305787 1268305795 8
1095 1268374052 1268374062 10
1096 1268390327 1268390352 25
1097 1268410156 1268410181 25
1098 1268459200 1268459225 25
1099 1268478808 1268478833 25
1100 1268480901 1268480926 25
1101 1268507800 1268507824 24
1102 1268573335 1268573360 25
1103 1268584510 1268584535 25
1104 1268604699 1268604724 25
1105 1268614737 1268614762 25
1106 1268633235 1268633260 25
1107 1268637949 1268637974 25
1108 1268724600 1268724625 25
1109 1268787302 1268787327 25
1110 1268853392 1268853432 40
1111 1268889950 1268889975 25
1112 1268892265 1268892290 25
1113 1268912104 1268912114 10
1114 1268912123 1268912136 13
1115 1268971815 1268971825 10
1116 1268982267 1268982270 3
1117 1268987175 1268987185 10
1118 1268988608 1268988610 2
1119 1268989238 1268989263 25
1120 1269020903 1269020928 25
1121 1269026244 1269026269 25
1122 1269069745 1269069770 25
1123 1269092171 1269092196 25
1124 1269136733 1269136758 25
1125 1269153831 1269153841 10
1126 1269158616 1269158626 10
1127 1269159518 1269159528 10
1128 1269162432 1269162457 25
1129 1269175612 1269175637 25
1130 1269182331 1269182356 25
1131 1269198614 1269198639 25
1132 1269204058 1269204083 25
1133 1269241202 1269241227 25
1134 1269295378 1269295403 25
1135 1269298082 1269298107 25
1136 1269313569 1269313577 8
1137 1269347265 1269347273 8
1138 1269347281 1269347289 8
