0 0 -7440
0 0 -7192
0 0 -6944
0 0 -6696
0 0 -6448
0 0 -6200
0 0 -5952
0 0 -5704
0 0 -5456
0 0 -5208
0 0 -4960
0 0 -4712
0 0 -4464
0 0 -4216
0 0 -3968
0 0 -3720
0 0 -3472
0 0 -3224
0 0 -2976
0 0 -2728
0 0 -2480
0 0 -2232
0 0 -1984
0 0 -1736
0 0 -1488
0 0 -1240
0 0 -992
0 0 -744
0 0 -496
0 0 -248
0 0 248
0 0 496
0 0 744
0 0 992
0 0 1240
0 0 1488
0 0 1736
0 0 1984
0 0 2232
0 0 2480
0 0 2728
0 0 2976
0 0 3224
0 0 3472
0 0 3720
0 0 3968
0 0 4216
0 0 4464
0 0 4712
0 0 4960
0 0 5208
0 0 5456
0 0 5704
0 0 5952
0 0 6200
0 0 6448
0 0 6696
0 0 6944
0 0 7192
0 0 7440
